Project 4B Testing/simulation/qsim/CS141L.msim.vcd
$comment
	File created using the following command:
		vcd file CS141L.msim.vcd -direction
$end
$date
	Sun Mar 08 18:41:32 2015
$end
$version
	ModelSim Version 10.3c
$end
$timescale
	1ps
$end

$scope module CS141L_vlg_vec_tst $end
$var reg 1 ! in_id_clk $end
$var reg 1 " in_id_inputPCResetFlag $end
$var reg 8 # in_id_instruction [7:0] $end
$var reg 1 $ in_id_labelPassFlagIn $end
$var reg 8 % in_id_program_counter [7:0] $end
$var wire 1 & id_branchFlag $end
$var wire 1 ' id_haltFlag $end
$var wire 1 ( id_immediateFlag $end
$var wire 1 ) id_labelFlag $end
$var wire 1 * id_labelPassFlagOut $end
$var wire 1 + id_labelValue [7] $end
$var wire 1 , id_labelValue [6] $end
$var wire 1 - id_labelValue [5] $end
$var wire 1 . id_labelValue [4] $end
$var wire 1 / id_labelValue [3] $end
$var wire 1 0 id_labelValue [2] $end
$var wire 1 1 id_labelValue [1] $end
$var wire 1 2 id_labelValue [0] $end
$var wire 1 3 id_opcode [3] $end
$var wire 1 4 id_opcode [2] $end
$var wire 1 5 id_opcode [1] $end
$var wire 1 6 id_opcode [0] $end
$var wire 1 7 id_outputPCResetFlag $end
$var wire 1 8 id_rd [3] $end
$var wire 1 9 id_rd [2] $end
$var wire 1 : id_rd [1] $end
$var wire 1 ; id_rd [0] $end
$var wire 1 < id_readmem $end
$var wire 1 = id_regwrite $end
$var wire 1 > id_rs [3] $end
$var wire 1 ? id_rs [2] $end
$var wire 1 @ id_rs [1] $end
$var wire 1 A id_rs [0] $end
$var wire 1 B id_rt [3] $end
$var wire 1 C id_rt [2] $end
$var wire 1 D id_rt [1] $end
$var wire 1 E id_rt [0] $end
$var wire 1 F id_signFlag $end
$var wire 1 G id_value [7] $end
$var wire 1 H id_value [6] $end
$var wire 1 I id_value [5] $end
$var wire 1 J id_value [4] $end
$var wire 1 K id_value [3] $end
$var wire 1 L id_value [2] $end
$var wire 1 M id_value [1] $end
$var wire 1 N id_value [0] $end
$var wire 1 O id_writemem $end
$var wire 1 P sampler $end

$scope module i1 $end
$var wire 1 Q gnd $end
$var wire 1 R vcc $end
$var wire 1 S unknown $end
$var tri1 1 T devclrn $end
$var tri1 1 U devpor $end
$var tri1 1 V devoe $end
$var wire 1 W in_id_inputPCResetFlag~input_o $end
$var wire 1 X id_immediateFlag~output_o $end
$var wire 1 Y id_signFlag~output_o $end
$var wire 1 Z id_labelFlag~output_o $end
$var wire 1 [ id_branchFlag~output_o $end
$var wire 1 \ id_haltFlag~output_o $end
$var wire 1 ] id_outputPCResetFlag~output_o $end
$var wire 1 ^ id_labelPassFlagOut~output_o $end
$var wire 1 _ id_writemem~output_o $end
$var wire 1 ` id_readmem~output_o $end
$var wire 1 a id_regwrite~output_o $end
$var wire 1 b id_labelValue[7]~output_o $end
$var wire 1 c id_labelValue[6]~output_o $end
$var wire 1 d id_labelValue[5]~output_o $end
$var wire 1 e id_labelValue[4]~output_o $end
$var wire 1 f id_labelValue[3]~output_o $end
$var wire 1 g id_labelValue[2]~output_o $end
$var wire 1 h id_labelValue[1]~output_o $end
$var wire 1 i id_labelValue[0]~output_o $end
$var wire 1 j id_opcode[3]~output_o $end
$var wire 1 k id_opcode[2]~output_o $end
$var wire 1 l id_opcode[1]~output_o $end
$var wire 1 m id_opcode[0]~output_o $end
$var wire 1 n id_rd[3]~output_o $end
$var wire 1 o id_rd[2]~output_o $end
$var wire 1 p id_rd[1]~output_o $end
$var wire 1 q id_rd[0]~output_o $end
$var wire 1 r id_rs[3]~output_o $end
$var wire 1 s id_rs[2]~output_o $end
$var wire 1 t id_rs[1]~output_o $end
$var wire 1 u id_rs[0]~output_o $end
$var wire 1 v id_rt[3]~output_o $end
$var wire 1 w id_rt[2]~output_o $end
$var wire 1 x id_rt[1]~output_o $end
$var wire 1 y id_rt[0]~output_o $end
$var wire 1 z id_value[7]~output_o $end
$var wire 1 { id_value[6]~output_o $end
$var wire 1 | id_value[5]~output_o $end
$var wire 1 } id_value[4]~output_o $end
$var wire 1 ~ id_value[3]~output_o $end
$var wire 1 !! id_value[2]~output_o $end
$var wire 1 "! id_value[1]~output_o $end
$var wire 1 #! id_value[0]~output_o $end
$var wire 1 $! in_id_clk~input_o $end
$var wire 1 %! in_id_clk~inputclkctrl_outclk $end
$var wire 1 &! in_id_labelPassFlagIn~input_o $end
$var wire 1 '! in_id_instruction[7]~input_o $end
$var wire 1 (! in_id_instruction[4]~input_o $end
$var wire 1 )! in_id_instruction[6]~input_o $end
$var wire 1 *! in_id_instruction[5]~input_o $end
$var wire 1 +! decode_name|opcode~0_combout $end
$var wire 1 ,! decode_name|opcode~1_combout $end
$var wire 1 -! decode_name|opcode~2_combout $end
$var wire 1 .! decode_name|opcode~3_combout $end
$var wire 1 /! decode_name|WideOr3~0_combout $end
$var wire 1 0! decode_name|immediateFlag~q $end
$var wire 1 1! decode_name|Equal0~0_combout $end
$var wire 1 2! decode_name|labelFlag~q $end
$var wire 1 3! decode_name|opcode~4_combout $end
$var wire 1 4! decode_name|Decoder0~0_combout $end
$var wire 1 5! decode_name|branchFlag~q $end
$var wire 1 6! decode_name|outputPCResetFlag~2_combout $end
$var wire 1 7! decode_name|haltFlag~2_combout $end
$var wire 1 8! decode_name|haltFlag~q $end
$var wire 1 9! decode_name|outputPCResetFlag~3_combout $end
$var wire 1 :! decode_name|outputPCResetFlag~q $end
$var wire 1 ;! decode_name|Equal1~0_combout $end
$var wire 1 <! decode_name|labelPassFlagOut~0_combout $end
$var wire 1 =! decode_name|labelPassFlagOut~q $end
$var wire 1 >! decode_name|Decoder0~1_combout $end
$var wire 1 ?! decode_name|writemem~q $end
$var wire 1 @! decode_name|Decoder0~2_combout $end
$var wire 1 A! decode_name|readmem~q $end
$var wire 1 B! decode_name|WideOr7~0_combout $end
$var wire 1 C! decode_name|regwrite~q $end
$var wire 1 D! in_id_program_counter[7]~input_o $end
$var wire 1 E! decode_name|labelValue~0_combout $end
$var wire 1 F! in_id_program_counter[6]~input_o $end
$var wire 1 G! decode_name|labelValue~1_combout $end
$var wire 1 H! in_id_program_counter[5]~input_o $end
$var wire 1 I! decode_name|labelValue~2_combout $end
$var wire 1 J! in_id_program_counter[4]~input_o $end
$var wire 1 K! decode_name|labelValue~3_combout $end
$var wire 1 L! in_id_program_counter[3]~input_o $end
$var wire 1 M! decode_name|labelValue~4_combout $end
$var wire 1 N! in_id_program_counter[2]~input_o $end
$var wire 1 O! decode_name|labelValue~5_combout $end
$var wire 1 P! in_id_program_counter[1]~input_o $end
$var wire 1 Q! decode_name|labelValue~6_combout $end
$var wire 1 R! in_id_program_counter[0]~input_o $end
$var wire 1 S! decode_name|labelValue~7_combout $end
$var wire 1 T! in_id_instruction[2]~input_o $end
$var wire 1 U! in_id_instruction[3]~input_o $end
$var wire 1 V! in_id_instruction[1]~input_o $end
$var wire 1 W! in_id_instruction[0]~input_o $end
$var wire 1 X! decode_name|WideOr0~1_combout $end
$var wire 1 Y! decode_name|WideOr0~0_combout $end
$var wire 1 Z! decode_name|value~0_combout $end
$var wire 1 [! decode_name|WideOr6~0_combout $end
$var wire 1 \! decode_name|Selector1~0_combout $end
$var wire 1 ]! decode_name|rs~0_combout $end
$var wire 1 ^! decode_name|rs~1_combout $end
$var wire 1 _! decode_name|Selector0~0_combout $end
$var wire 1 `! decode_name|labelValue [7] $end
$var wire 1 a! decode_name|labelValue [6] $end
$var wire 1 b! decode_name|labelValue [5] $end
$var wire 1 c! decode_name|labelValue [4] $end
$var wire 1 d! decode_name|labelValue [3] $end
$var wire 1 e! decode_name|labelValue [2] $end
$var wire 1 f! decode_name|labelValue [1] $end
$var wire 1 g! decode_name|labelValue [0] $end
$var wire 1 h! decode_name|opcode [3] $end
$var wire 1 i! decode_name|opcode [2] $end
$var wire 1 j! decode_name|opcode [1] $end
$var wire 1 k! decode_name|opcode [0] $end
$var wire 1 l! decode_name|rd [3] $end
$var wire 1 m! decode_name|rd [2] $end
$var wire 1 n! decode_name|rd [1] $end
$var wire 1 o! decode_name|rd [0] $end
$var wire 1 p! decode_name|rs [3] $end
$var wire 1 q! decode_name|rs [2] $end
$var wire 1 r! decode_name|rs [1] $end
$var wire 1 s! decode_name|rs [0] $end
$var wire 1 t! decode_name|rt [3] $end
$var wire 1 u! decode_name|rt [2] $end
$var wire 1 v! decode_name|rt [1] $end
$var wire 1 w! decode_name|rt [0] $end
$var wire 1 x! decode_name|value [7] $end
$var wire 1 y! decode_name|value [6] $end
$var wire 1 z! decode_name|value [5] $end
$var wire 1 {! decode_name|value [4] $end
$var wire 1 |! decode_name|value [3] $end
$var wire 1 }! decode_name|value [2] $end
$var wire 1 ~! decode_name|value [1] $end
$var wire 1 !" decode_name|value [0] $end
$upscope $end
$upscope $end
$enddefinitions $end
#0
$dumpvars
0!
1"
b0 #
0$
b0 %
0&
0'
0(
0)
0*
02
01
00
0/
0.
0-
0,
0+
06
05
04
03
07
0;
0:
09
08
0<
0=
0A
0@
0?
0>
0E
0D
0C
0B
0F
0N
0M
0L
0K
0J
0I
0H
0G
0O
xP
0Q
1R
xS
1T
1U
1V
1W
0X
0Y
0Z
0[
0\
0]
0^
0_
0`
0a
0b
0c
0d
0e
0f
0g
0h
0i
0j
0k
0l
0m
0n
0o
0p
0q
0r
0s
0t
0u
0v
0w
0x
0y
0z
0{
0|
0}
0~
0!!
0"!
0#!
0$!
0%!
0&!
0'!
0(!
0)!
0*!
1+!
0,!
0-!
0.!
0/!
00!
01!
02!
03!
04!
05!
06!
07!
08!
09!
0:!
1;!
0<!
0=!
0>!
0?!
0@!
0A!
1B!
0C!
0D!
0E!
0F!
0G!
0H!
0I!
0J!
0K!
0L!
0M!
0N!
0O!
0P!
0Q!
0R!
0S!
0T!
0U!
0V!
0W!
0X!
0Y!
0Z!
0[!
0\!
0]!
0^!
0_!
0g!
0f!
0e!
0d!
0c!
0b!
0a!
0`!
0k!
0j!
0i!
0h!
0o!
zn!
zm!
zl!
0s!
zr!
zq!
zp!
0w!
zv!
zu!
zt!
0!"
z~!
z}!
z|!
z{!
zz!
zy!
zx!
$end
#5000
1!
1$!
0P
1%!
1C!
1a
1=
#10000
0!
0$!
1P
0%!
#15000
1!
1$!
0P
1%!
#20000
b1 #
0!
1W!
0$!
1P
0%!
1X!
1Z!
1\!
#25000
1!
1$!
0P
1%!
1!"
1o!
1q
1#!
1;
1N
#30000
0!
0$!
1P
0%!
#35000
1!
1$!
0P
1%!
#40000
b11 #
b10 #
0!
0W!
1V!
0$!
1P
0%!
#45000
1!
1$!
0P
1%!
#50000
0!
0$!
1P
0%!
#55000
1!
1$!
0P
1%!
#60000
b11 #
0!
1W!
0$!
1P
0%!
#65000
1!
1$!
0P
1%!
#70000
0!
0$!
1P
0%!
#75000
1!
1$!
0P
1%!
#80000
b111 #
b101 #
b100 #
0!
0W!
0V!
1T!
0$!
1P
0%!
#85000
1!
1$!
0P
1%!
#90000
0!
0$!
1P
0%!
#95000
1!
1$!
0P
1%!
#100000
b101 #
0!
1W!
0$!
1P
0%!
#105000
1!
1$!
0P
1%!
#110000
0!
0$!
1P
0%!
#115000
1!
1$!
0P
1%!
#120000
b111 #
b110 #
0!
0W!
1V!
0$!
1P
0%!
#125000
1!
1$!
0P
1%!
#130000
0!
0$!
1P
0%!
#135000
1!
1$!
0P
1%!
#140000
b111 #
0!
1W!
0$!
1P
0%!
#145000
1!
1$!
0P
1%!
#150000
0!
0$!
1P
0%!
#155000
1!
1$!
0P
1%!
#160000
0"
b1111 #
b1011 #
b1001 #
b1000 #
0!
0W
0W!
0V!
0T!
1U!
0$!
1P
0%!
#165000
1!
1$!
0P
1%!
#170000
0!
0$!
1P
0%!
#175000
1!
1$!
0P
1%!
#180000
b1001 #
0!
1W!
0$!
1P
0%!
#185000
1!
1$!
0P
1%!
#190000
0!
0$!
1P
0%!
#195000
1!
1$!
0P
1%!
#200000
b1011 #
b1010 #
0!
0W!
1V!
0$!
1P
0%!
#205000
1!
1$!
0P
1%!
#210000
0!
0$!
1P
0%!
#215000
1!
1$!
0P
1%!
#220000
b1011 #
0!
1W!
0$!
1P
0%!
#225000
1!
1$!
0P
1%!
#230000
0!
0$!
1P
0%!
#235000
1!
1$!
0P
1%!
#240000
b1111 #
b1101 #
b1100 #
0!
0W!
0V!
1T!
0$!
1P
0%!
#245000
1!
1$!
0P
1%!
#250000
0!
0$!
1P
0%!
#255000
1!
1$!
0P
1%!
#260000
b1101 #
0!
1W!
0$!
1P
0%!
#265000
1!
1$!
0P
1%!
#270000
0!
0$!
1P
0%!
#275000
1!
1$!
0P
1%!
#280000
b1111 #
b1110 #
0!
0W!
1V!
0$!
1P
0%!
#285000
1!
1$!
0P
1%!
#290000
0!
0$!
1P
0%!
#295000
1!
1$!
0P
1%!
#300000
b1111 #
0!
1W!
0$!
1P
0%!
#305000
1!
1$!
0P
1%!
#310000
0!
0$!
1P
0%!
#315000
1!
1$!
0P
1%!
#320000
b11111 #
b10111 #
b10011 #
b10001 #
b10000 #
0!
0W!
0V!
0T!
0U!
1(!
0$!
1P
0%!
0X!
1]!
1[!
1Y!
13!
1^!
0\!
#325000
1!
1$!
0P
1%!
1s!
0o!
1k!
1m
0q
1u
16
0;
1A
#330000
0!
0$!
1P
0%!
#335000
1!
1$!
0P
1%!
#340000
b10001 #
0!
1W!
0$!
1P
0%!
1X!
#345000
1!
1$!
0P
1%!
#350000
0!
0$!
1P
0%!
#355000
1!
1$!
0P
1%!
#360000
b10011 #
b10010 #
0!
0W!
1V!
0$!
1P
0%!
#365000
1!
1$!
0P
1%!
#370000
0!
0$!
1P
0%!
#375000
1!
1$!
0P
1%!
#380000
b10011 #
0!
1W!
0$!
1P
0%!
#385000
1!
1$!
0P
1%!
#390000
0!
0$!
1P
0%!
#395000
1!
1$!
0P
1%!
#400000
b10111 #
b10101 #
b10100 #
0!
0W!
0V!
1T!
0$!
1P
0%!
#405000
1!
1$!
0P
1%!
#410000
0!
0$!
1P
0%!
#415000
1!
1$!
0P
1%!
#420000
b10101 #
0!
1W!
0$!
1P
0%!
#425000
1!
1$!
0P
1%!
#430000
0!
0$!
1P
0%!
#435000
1!
1$!
0P
1%!
#440000
b10111 #
b10110 #
0!
0W!
1V!
0$!
1P
0%!
#445000
1!
1$!
0P
1%!
#450000
0!
0$!
1P
0%!
#455000
1!
1$!
0P
1%!
#460000
b10111 #
0!
1W!
0$!
1P
0%!
#465000
1!
1$!
0P
1%!
#470000
0!
0$!
1P
0%!
#475000
1!
1$!
0P
1%!
#480000
b11111 #
b11011 #
b11001 #
b11000 #
0!
0W!
0V!
0T!
1U!
0$!
1P
0%!
#485000
1!
1$!
0P
1%!
#490000
0!
0$!
1P
0%!
#495000
1!
1$!
0P
1%!
#500000
b11001 #
0!
1W!
0$!
1P
0%!
#505000
1!
1$!
0P
1%!
#510000
0!
0$!
1P
0%!
#515000
1!
1$!
0P
1%!
#520000
b11011 #
b11010 #
0!
0W!
1V!
0$!
1P
0%!
#525000
1!
1$!
0P
1%!
#530000
0!
0$!
1P
0%!
#535000
1!
1$!
0P
1%!
#540000
b11011 #
0!
1W!
0$!
1P
0%!
#545000
1!
1$!
0P
1%!
#550000
0!
0$!
1P
0%!
#555000
1!
1$!
0P
1%!
#560000
b11111 #
b11101 #
b11100 #
0!
0W!
0V!
1T!
0$!
1P
0%!
#565000
1!
1$!
0P
1%!
#570000
0!
0$!
1P
0%!
#575000
1!
1$!
0P
1%!
#580000
b11101 #
0!
1W!
0$!
1P
0%!
#585000
1!
1$!
0P
1%!
#590000
0!
0$!
1P
0%!
#595000
1!
1$!
0P
1%!
#600000
b11111 #
b11110 #
0!
0W!
1V!
0$!
1P
0%!
#605000
1!
1$!
0P
1%!
#610000
0!
0$!
1P
0%!
#615000
1!
1$!
0P
1%!
#620000
b11111 #
0!
1W!
0$!
1P
0%!
#625000
1!
1$!
0P
1%!
#630000
0!
0$!
1P
0%!
#635000
1!
1$!
0P
1%!
#640000
b111111 #
b101111 #
b100111 #
b100011 #
b100001 #
b100000 #
0!
0W!
0V!
0T!
0U!
0(!
1*!
0$!
1P
0%!
0X!
0]!
0[!
03!
1-!
0^!
1\!
1_!
#645000
1!
1$!
0P
1%!
1w!
0s!
1o!
0k!
1j!
1l
0m
1q
0u
1y
15
06
1;
0A
1E
#650000
0!
0$!
1P
0%!
#655000
1!
1$!
0P
1%!
#660000
b100001 #
0!
1W!
0$!
1P
0%!
1X!
#665000
1!
1$!
0P
1%!
#670000
0!
0$!
1P
0%!
#675000
1!
1$!
0P
1%!
#680000
b100011 #
b100010 #
0!
0W!
1V!
0$!
1P
0%!
#685000
1!
1$!
0P
1%!
#690000
0!
0$!
1P
0%!
#695000
1!
1$!
0P
1%!
#700000
b100011 #
0!
1W!
0$!
1P
0%!
#705000
1!
1$!
0P
1%!
#710000
0!
0$!
1P
0%!
#715000
1!
1$!
0P
1%!
#720000
b100111 #
b100101 #
b100100 #
0!
0W!
0V!
1T!
0$!
1P
0%!
#725000
1!
1$!
0P
1%!
#730000
0!
0$!
1P
0%!
#735000
1!
1$!
0P
1%!
#740000
b100101 #
0!
1W!
0$!
1P
0%!
#745000
1!
1$!
0P
1%!
#750000
0!
0$!
1P
0%!
#755000
1!
1$!
0P
1%!
#760000
b100111 #
b100110 #
0!
0W!
1V!
0$!
1P
0%!
#765000
1!
1$!
0P
1%!
#770000
0!
0$!
1P
0%!
#775000
1!
1$!
0P
1%!
#780000
b100111 #
0!
1W!
0$!
1P
0%!
#785000
1!
1$!
0P
1%!
#790000
0!
0$!
1P
0%!
#795000
1!
1$!
0P
1%!
#800000
b101111 #
b101011 #
b101001 #
b101000 #
0!
0W!
0V!
0T!
1U!
0$!
1P
0%!
#805000
1!
1$!
0P
1%!
#810000
0!
0$!
1P
0%!
#815000
1!
1$!
0P
1%!
#820000
b101001 #
0!
1W!
0$!
1P
0%!
#825000
1!
1$!
0P
1%!
#830000
0!
0$!
1P
0%!
#835000
1!
1$!
0P
1%!
#840000
b101011 #
b101010 #
0!
0W!
1V!
0$!
1P
0%!
#845000
1!
1$!
0P
1%!
#850000
0!
0$!
1P
0%!
#855000
1!
1$!
0P
1%!
#860000
b101011 #
0!
1W!
0$!
1P
0%!
#865000
1!
1$!
0P
1%!
#870000
0!
0$!
1P
0%!
#875000
1!
1$!
0P
1%!
#880000
b101111 #
b101101 #
b101100 #
0!
0W!
0V!
1T!
0$!
1P
0%!
#885000
1!
1$!
0P
1%!
#890000
0!
0$!
1P
0%!
#895000
1!
1$!
0P
1%!
#900000
b101101 #
0!
1W!
0$!
1P
0%!
#905000
1!
1$!
0P
1%!
#910000
0!
0$!
1P
0%!
#915000
1!
1$!
0P
1%!
#920000
b101111 #
b101110 #
0!
0W!
1V!
0$!
1P
0%!
#925000
1!
1$!
0P
1%!
#930000
0!
0$!
1P
0%!
#935000
1!
1$!
0P
1%!
#940000
b101111 #
0!
1W!
0$!
1P
0%!
#945000
1!
1$!
0P
1%!
#950000
0!
0$!
1P
0%!
#955000
1!
1$!
0P
1%!
#960000
b111111 #
b110111 #
b110011 #
b110001 #
b110000 #
0!
0W!
0V!
0T!
0U!
1(!
0$!
1P
0%!
0X!
1]!
1[!
13!
1^!
0\!
0_!
#965000
1!
1$!
0P
1%!
0w!
1s!
0o!
1k!
1m
0q
1u
0y
16
0;
1A
0E
#970000
0!
0$!
1P
0%!
#975000
1!
1$!
0P
1%!
#980000
b110001 #
0!
1W!
0$!
1P
0%!
1X!
#985000
1!
1$!
0P
1%!
#990000
0!
0$!
1P
0%!
#995000
1!
1$!
0P
1%!
#1000000
b110011 #
b110010 #
0!
0W!
1V!
0$!
1P
0%!
#1005000
1!
1$!
0P
1%!
#1010000
0!
0$!
1P
0%!
#1015000
1!
1$!
0P
1%!
#1020000
b110011 #
0!
1W!
0$!
1P
0%!
#1025000
1!
1$!
0P
1%!
#1030000
0!
0$!
1P
0%!
#1035000
1!
1$!
0P
1%!
#1040000
b110111 #
b110101 #
b110100 #
0!
0W!
0V!
1T!
0$!
1P
0%!
#1045000
1!
1$!
0P
1%!
#1050000
0!
0$!
1P
0%!
#1055000
1!
1$!
0P
1%!
#1060000
b110101 #
0!
1W!
0$!
1P
0%!
#1065000
1!
1$!
0P
1%!
#1070000
0!
0$!
1P
0%!
#1075000
1!
1$!
0P
1%!
#1080000
b110111 #
b110110 #
0!
0W!
1V!
0$!
1P
0%!
#1085000
1!
1$!
0P
1%!
#1090000
0!
0$!
1P
0%!
#1095000
1!
1$!
0P
1%!
#1100000
b110111 #
0!
1W!
0$!
1P
0%!
#1105000
1!
1$!
0P
1%!
#1110000
0!
0$!
1P
0%!
#1115000
1!
1$!
0P
1%!
#1120000
b111111 #
b111011 #
b111001 #
b111000 #
0!
0W!
0V!
0T!
1U!
0$!
1P
0%!
#1125000
1!
1$!
0P
1%!
#1130000
0!
0$!
1P
0%!
#1135000
1!
1$!
0P
1%!
#1140000
b111001 #
0!
1W!
0$!
1P
0%!
#1145000
1!
1$!
0P
1%!
#1150000
0!
0$!
1P
0%!
#1155000
1!
1$!
0P
1%!
#1160000
b111011 #
b111010 #
0!
0W!
1V!
0$!
1P
0%!
#1165000
1!
1$!
0P
1%!
#1170000
0!
0$!
1P
0%!
#1175000
1!
1$!
0P
1%!
#1180000
b111011 #
0!
1W!
0$!
1P
0%!
#1185000
1!
1$!
0P
1%!
#1190000
0!
0$!
1P
0%!
#1195000
1!
1$!
0P
1%!
#1200000
b111111 #
b111101 #
b111100 #
0!
0W!
0V!
1T!
0$!
1P
0%!
#1205000
1!
1$!
0P
1%!
#1210000
0!
0$!
1P
0%!
#1215000
1!
1$!
0P
1%!
#1220000
b111101 #
0!
1W!
0$!
1P
0%!
#1225000
1!
1$!
0P
1%!
#1230000
0!
0$!
1P
0%!
#1235000
1!
1$!
0P
1%!
#1240000
b111111 #
b111110 #
0!
0W!
1V!
0$!
1P
0%!
#1245000
1!
1$!
0P
1%!
#1250000
0!
0$!
1P
0%!
#1255000
1!
1$!
0P
1%!
#1260000
b111111 #
0!
1W!
0$!
1P
0%!
#1265000
1!
1$!
0P
1%!
#1270000
0!
0$!
1P
0%!
#1275000
1!
1$!
0P
1%!
#1280000
b1111111 #
b1011111 #
b1001111 #
b1000111 #
b1000011 #
b1000001 #
b1000000 #
0!
0W!
0V!
0T!
0U!
0(!
0*!
1)!
0$!
1P
0%!
0X!
0]!
0[!
03!
0-!
1.!
0^!
1\!
1_!
#1285000
1!
1$!
0P
1%!
1w!
0s!
1o!
0k!
0j!
1i!
1k
0l
0m
1q
0u
1y
14
05
06
1;
0A
1E
#1290000
0!
0$!
1P
0%!
#1295000
1!
1$!
0P
1%!
#1300000
b1000001 #
0!
1W!
0$!
1P
0%!
1X!
#1305000
1!
1$!
0P
1%!
#1310000
0!
0$!
1P
0%!
#1315000
1!
1$!
0P
1%!
#1320000
b1000011 #
b1000010 #
0!
0W!
1V!
0$!
1P
0%!
#1325000
1!
1$!
0P
1%!
#1330000
0!
0$!
1P
0%!
#1335000
1!
1$!
0P
1%!
#1340000
b1000011 #
0!
1W!
0$!
1P
0%!
#1345000
1!
1$!
0P
1%!
#1350000
0!
0$!
1P
0%!
#1355000
1!
1$!
0P
1%!
#1360000
b1000111 #
b1000101 #
b1000100 #
0!
0W!
0V!
1T!
0$!
1P
0%!
#1365000
1!
1$!
0P
1%!
#1370000
0!
0$!
1P
0%!
#1375000
1!
1$!
0P
1%!
#1380000
b1000101 #
0!
1W!
0$!
1P
0%!
#1385000
1!
1$!
0P
1%!
#1390000
0!
0$!
1P
0%!
#1395000
1!
1$!
0P
1%!
#1400000
b1000111 #
b1000110 #
0!
0W!
1V!
0$!
1P
0%!
#1405000
1!
1$!
0P
1%!
#1410000
0!
0$!
1P
0%!
#1415000
1!
1$!
0P
1%!
#1420000
b1000111 #
0!
1W!
0$!
1P
0%!
#1425000
1!
1$!
0P
1%!
#1430000
0!
0$!
1P
0%!
#1435000
1!
1$!
0P
1%!
#1440000
b1001111 #
b1001011 #
b1001001 #
b1001000 #
0!
0W!
0V!
0T!
1U!
0$!
1P
0%!
#1445000
1!
1$!
0P
1%!
#1450000
0!
0$!
1P
0%!
#1455000
1!
1$!
0P
1%!
#1460000
b1001001 #
0!
1W!
0$!
1P
0%!
#1465000
1!
1$!
0P
1%!
#1470000
0!
0$!
1P
0%!
#1475000
1!
1$!
0P
1%!
#1480000
b1001011 #
b1001010 #
0!
0W!
1V!
0$!
1P
0%!
#1485000
1!
1$!
0P
1%!
#1490000
0!
0$!
1P
0%!
#1495000
1!
1$!
0P
1%!
#1500000
b1001011 #
0!
1W!
0$!
1P
0%!
#1505000
1!
1$!
0P
1%!
#1510000
0!
0$!
1P
0%!
#1515000
1!
1$!
0P
1%!
#1520000
b1001111 #
b1001101 #
b1001100 #
0!
0W!
0V!
1T!
0$!
1P
0%!
#1525000
1!
1$!
0P
1%!
#1530000
0!
0$!
1P
0%!
#1535000
1!
1$!
0P
1%!
#1540000
b1001101 #
0!
1W!
0$!
1P
0%!
#1545000
1!
1$!
0P
1%!
#1550000
0!
0$!
1P
0%!
#1555000
1!
1$!
0P
1%!
#1560000
b1001111 #
b1001110 #
0!
0W!
1V!
0$!
1P
0%!
#1565000
1!
1$!
0P
1%!
#1570000
0!
0$!
1P
0%!
#1575000
1!
1$!
0P
1%!
#1580000
b1001111 #
0!
1W!
0$!
1P
0%!
#1585000
1!
1$!
0P
1%!
#1590000
0!
0$!
1P
0%!
#1595000
1!
1$!
0P
1%!
#1600000
b1011111 #
b1010111 #
b1010011 #
b1010001 #
b1010000 #
0!
0W!
0V!
0T!
0U!
1(!
0$!
1P
0%!
0X!
13!
0_!
1@!
#1605000
1!
1$!
0P
1%!
0w!
1k!
1A!
1`
1m
0y
1<
16
0E
#1610000
0!
0$!
1P
0%!
#1615000
1!
1$!
0P
1%!
#1620000
b1010001 #
0!
1W!
0$!
1P
0%!
1X!
#1625000
1!
1$!
0P
1%!
#1630000
0!
0$!
1P
0%!
#1635000
1!
1$!
0P
1%!
#1640000
b1010011 #
b1010010 #
0!
0W!
1V!
0$!
1P
0%!
#1645000
1!
1$!
0P
1%!
#1650000
0!
0$!
1P
0%!
#1655000
1!
1$!
0P
1%!
#1660000
b1010011 #
0!
1W!
0$!
1P
0%!
#1665000
1!
1$!
0P
1%!
#1670000
0!
0$!
1P
0%!
#1675000
1!
1$!
0P
1%!
#1680000
b1010111 #
b1010101 #
b1010100 #
0!
0W!
0V!
1T!
0$!
1P
0%!
#1685000
1!
1$!
0P
1%!
#1690000
0!
0$!
1P
0%!
#1695000
1!
1$!
0P
1%!
#1700000
b1010101 #
0!
1W!
0$!
1P
0%!
#1705000
1!
1$!
0P
1%!
#1710000
0!
0$!
1P
0%!
#1715000
1!
1$!
0P
1%!
#1720000
b1010111 #
b1010110 #
0!
0W!
1V!
0$!
1P
0%!
#1725000
1!
1$!
0P
1%!
#1730000
0!
0$!
1P
0%!
#1735000
1!
1$!
0P
1%!
#1740000
b1010111 #
0!
1W!
0$!
1P
0%!
#1745000
1!
1$!
0P
1%!
#1750000
0!
0$!
1P
0%!
#1755000
1!
1$!
0P
1%!
#1760000
b1011111 #
b1011011 #
b1011001 #
b1011000 #
0!
0W!
0V!
0T!
1U!
0$!
1P
0%!
#1765000
1!
1$!
0P
1%!
#1770000
0!
0$!
1P
0%!
#1775000
1!
1$!
0P
1%!
#1780000
b1011001 #
0!
1W!
0$!
1P
0%!
#1785000
1!
1$!
0P
1%!
#1790000
0!
0$!
1P
0%!
#1795000
1!
1$!
0P
1%!
#1800000
b1011011 #
b1011010 #
0!
0W!
1V!
0$!
1P
0%!
#1805000
1!
1$!
0P
1%!
#1810000
0!
0$!
1P
0%!
#1815000
1!
1$!
0P
1%!
#1820000
b1011011 #
0!
1W!
0$!
1P
0%!
#1825000
1!
1$!
0P
1%!
#1830000
0!
0$!
1P
0%!
#1835000
1!
1$!
0P
1%!
#1840000
b1011111 #
b1011101 #
b1011100 #
0!
0W!
0V!
1T!
0$!
1P
0%!
#1845000
1!
1$!
0P
1%!
#1850000
0!
0$!
1P
0%!
#1855000
1!
1$!
0P
1%!
#1860000
b1011101 #
0!
1W!
0$!
1P
0%!
#1865000
1!
1$!
0P
1%!
#1870000
0!
0$!
1P
0%!
#1875000
1!
1$!
0P
1%!
#1880000
b1011111 #
b1011110 #
0!
0W!
1V!
0$!
1P
0%!
#1885000
1!
1$!
0P
1%!
#1890000
0!
0$!
1P
0%!
#1895000
1!
1$!
0P
1%!
#1900000
b1011111 #
0!
1W!
0$!
1P
0%!
#1905000
1!
1$!
0P
1%!
#1910000
0!
0$!
1P
0%!
#1915000
1!
1$!
0P
1%!
#1920000
b1111111 #
b1101111 #
b1100111 #
b1100011 #
b1100001 #
b1100000 #
0!
0W!
0V!
0T!
0U!
0(!
1*!
0$!
1P
0%!
0X!
1]!
1[!
16!
03!
1-!
1^!
0\!
0B!
0@!
1>!
#1925000
1!
1$!
0P
1%!
1s!
0o!
0k!
1j!
0C!
0A!
1?!
1_
0`
0a
1l
0m
0q
1u
1O
0<
0=
15
06
0;
1A
#1930000
0!
0$!
1P
0%!
#1935000
1!
1$!
0P
1%!
#1940000
b1100001 #
0!
1W!
0$!
1P
0%!
1X!
#1945000
1!
1$!
0P
1%!
#1950000
0!
0$!
1P
0%!
#1955000
1!
1$!
0P
1%!
#1960000
b1100011 #
b1100010 #
0!
0W!
1V!
0$!
1P
0%!
#1965000
1!
1$!
0P
1%!
#1970000
0!
0$!
1P
0%!
#1975000
1!
1$!
0P
1%!
#1980000
b1100011 #
0!
1W!
0$!
1P
0%!
#1985000
1!
1$!
0P
1%!
