Project 4B/simulation/qsim/CS141L.msim.vcd
$comment
	File created using the following command:
		vcd file CS141L.msim.vcd -direction
$end
$date
	Sat Mar 07 22:33:43 2015
$end
$version
	ModelSim Version 10.3c
$end
$timescale
	1ps
$end

$scope module CS141L_vlg_vec_tst $end
$var reg 1 ! clk $end
$var reg 1 " labelPassButton $end
$var reg 1 # start $end
$var reg 8 $ startAddress [7:0] $end
$var reg 1 % zero $end
$var wire 1 & addr [7] $end
$var wire 1 ' addr [6] $end
$var wire 1 ( addr [5] $end
$var wire 1 ) addr [4] $end
$var wire 1 * addr [3] $end
$var wire 1 + addr [2] $end
$var wire 1 , addr [1] $end
$var wire 1 - addr [0] $end
$var wire 1 . aluIn0 [7] $end
$var wire 1 / aluIn0 [6] $end
$var wire 1 0 aluIn0 [5] $end
$var wire 1 1 aluIn0 [4] $end
$var wire 1 2 aluIn0 [3] $end
$var wire 1 3 aluIn0 [2] $end
$var wire 1 4 aluIn0 [1] $end
$var wire 1 5 aluIn0 [0] $end
$var wire 1 6 aluIn1 [7] $end
$var wire 1 7 aluIn1 [6] $end
$var wire 1 8 aluIn1 [5] $end
$var wire 1 9 aluIn1 [4] $end
$var wire 1 : aluIn1 [3] $end
$var wire 1 ; aluIn1 [2] $end
$var wire 1 < aluIn1 [1] $end
$var wire 1 = aluIn1 [0] $end
$var wire 1 > aluRes [7] $end
$var wire 1 ? aluRes [6] $end
$var wire 1 @ aluRes [5] $end
$var wire 1 A aluRes [4] $end
$var wire 1 B aluRes [3] $end
$var wire 1 C aluRes [2] $end
$var wire 1 D aluRes [1] $end
$var wire 1 E aluRes [0] $end
$var wire 1 F clkOutEnd $end
$var wire 1 G clock_out $end
$var wire 1 H currentpc [7] $end
$var wire 1 I currentpc [6] $end
$var wire 1 J currentpc [5] $end
$var wire 1 K currentpc [4] $end
$var wire 1 L currentpc [3] $end
$var wire 1 M currentpc [2] $end
$var wire 1 N currentpc [1] $end
$var wire 1 O currentpc [0] $end
$var wire 1 P cycleCounter [15] $end
$var wire 1 Q cycleCounter [14] $end
$var wire 1 R cycleCounter [13] $end
$var wire 1 S cycleCounter [12] $end
$var wire 1 T cycleCounter [11] $end
$var wire 1 U cycleCounter [10] $end
$var wire 1 V cycleCounter [9] $end
$var wire 1 W cycleCounter [8] $end
$var wire 1 X cycleCounter [7] $end
$var wire 1 Y cycleCounter [6] $end
$var wire 1 Z cycleCounter [5] $end
$var wire 1 [ cycleCounter [4] $end
$var wire 1 \ cycleCounter [3] $end
$var wire 1 ] cycleCounter [2] $end
$var wire 1 ^ cycleCounter [1] $end
$var wire 1 _ cycleCounter [0] $end
$var wire 1 ` halt_out $end
$var wire 1 a id_rs [3] $end
$var wire 1 b id_rs [2] $end
$var wire 1 c id_rs [1] $end
$var wire 1 d id_rs [0] $end
$var wire 1 e instruction_value [7] $end
$var wire 1 f instruction_value [6] $end
$var wire 1 g instruction_value [5] $end
$var wire 1 h instruction_value [4] $end
$var wire 1 i instruction_value [3] $end
$var wire 1 j instruction_value [2] $end
$var wire 1 k instruction_value [1] $end
$var wire 1 l instruction_value [0] $end
$var wire 1 m opcode_out [3] $end
$var wire 1 n opcode_out [2] $end
$var wire 1 o opcode_out [1] $end
$var wire 1 p opcode_out [0] $end
$var wire 1 q orOut $end
$var wire 1 r outPCResetFlag $end
$var wire 1 s ramOut [7] $end
$var wire 1 t ramOut [6] $end
$var wire 1 u ramOut [5] $end
$var wire 1 v ramOut [4] $end
$var wire 1 w ramOut [3] $end
$var wire 1 x ramOut [2] $end
$var wire 1 y ramOut [1] $end
$var wire 1 z ramOut [0] $end
$var wire 1 { val [7] $end
$var wire 1 | val [6] $end
$var wire 1 } val [5] $end
$var wire 1 ~ val [4] $end
$var wire 1 !! val [3] $end
$var wire 1 "! val [2] $end
$var wire 1 #! val [1] $end
$var wire 1 $! val [0] $end
$var wire 1 %! sampler $end

$scope module i1 $end
$var wire 1 &! gnd $end
$var wire 1 '! vcc $end
$var wire 1 (! unknown $end
$var tri1 1 )! devclrn $end
$var tri1 1 *! devpor $end
$var tri1 1 +! devoe $end
$var wire 1 ,! zero~input_o $end
$var wire 1 -! clock_out~output_o $end
$var wire 1 .! halt_out~output_o $end
$var wire 1 /! outPCResetFlag~output_o $end
$var wire 1 0! orOut~output_o $end
$var wire 1 1! clkOutEnd~output_o $end
$var wire 1 2! addr[7]~output_o $end
$var wire 1 3! addr[6]~output_o $end
$var wire 1 4! addr[5]~output_o $end
$var wire 1 5! addr[4]~output_o $end
$var wire 1 6! addr[3]~output_o $end
$var wire 1 7! addr[2]~output_o $end
$var wire 1 8! addr[1]~output_o $end
$var wire 1 9! addr[0]~output_o $end
$var wire 1 :! aluIn0[7]~output_o $end
$var wire 1 ;! aluIn0[6]~output_o $end
$var wire 1 <! aluIn0[5]~output_o $end
$var wire 1 =! aluIn0[4]~output_o $end
$var wire 1 >! aluIn0[3]~output_o $end
$var wire 1 ?! aluIn0[2]~output_o $end
$var wire 1 @! aluIn0[1]~output_o $end
$var wire 1 A! aluIn0[0]~output_o $end
$var wire 1 B! aluIn1[7]~output_o $end
$var wire 1 C! aluIn1[6]~output_o $end
$var wire 1 D! aluIn1[5]~output_o $end
$var wire 1 E! aluIn1[4]~output_o $end
$var wire 1 F! aluIn1[3]~output_o $end
$var wire 1 G! aluIn1[2]~output_o $end
$var wire 1 H! aluIn1[1]~output_o $end
$var wire 1 I! aluIn1[0]~output_o $end
$var wire 1 J! aluRes[7]~output_o $end
$var wire 1 K! aluRes[6]~output_o $end
$var wire 1 L! aluRes[5]~output_o $end
$var wire 1 M! aluRes[4]~output_o $end
$var wire 1 N! aluRes[3]~output_o $end
$var wire 1 O! aluRes[2]~output_o $end
$var wire 1 P! aluRes[1]~output_o $end
$var wire 1 Q! aluRes[0]~output_o $end
$var wire 1 R! currentpc[7]~output_o $end
$var wire 1 S! currentpc[6]~output_o $end
$var wire 1 T! currentpc[5]~output_o $end
$var wire 1 U! currentpc[4]~output_o $end
$var wire 1 V! currentpc[3]~output_o $end
$var wire 1 W! currentpc[2]~output_o $end
$var wire 1 X! currentpc[1]~output_o $end
$var wire 1 Y! currentpc[0]~output_o $end
$var wire 1 Z! cycleCounter[15]~output_o $end
$var wire 1 [! cycleCounter[14]~output_o $end
$var wire 1 \! cycleCounter[13]~output_o $end
$var wire 1 ]! cycleCounter[12]~output_o $end
$var wire 1 ^! cycleCounter[11]~output_o $end
$var wire 1 _! cycleCounter[10]~output_o $end
$var wire 1 `! cycleCounter[9]~output_o $end
$var wire 1 a! cycleCounter[8]~output_o $end
$var wire 1 b! cycleCounter[7]~output_o $end
$var wire 1 c! cycleCounter[6]~output_o $end
$var wire 1 d! cycleCounter[5]~output_o $end
$var wire 1 e! cycleCounter[4]~output_o $end
$var wire 1 f! cycleCounter[3]~output_o $end
$var wire 1 g! cycleCounter[2]~output_o $end
$var wire 1 h! cycleCounter[1]~output_o $end
$var wire 1 i! cycleCounter[0]~output_o $end
$var wire 1 j! id_rs[3]~output_o $end
$var wire 1 k! id_rs[2]~output_o $end
$var wire 1 l! id_rs[1]~output_o $end
$var wire 1 m! id_rs[0]~output_o $end
$var wire 1 n! instruction_value[7]~output_o $end
$var wire 1 o! instruction_value[6]~output_o $end
$var wire 1 p! instruction_value[5]~output_o $end
$var wire 1 q! instruction_value[4]~output_o $end
$var wire 1 r! instruction_value[3]~output_o $end
$var wire 1 s! instruction_value[2]~output_o $end
$var wire 1 t! instruction_value[1]~output_o $end
$var wire 1 u! instruction_value[0]~output_o $end
$var wire 1 v! opcode_out[3]~output_o $end
$var wire 1 w! opcode_out[2]~output_o $end
$var wire 1 x! opcode_out[1]~output_o $end
$var wire 1 y! opcode_out[0]~output_o $end
$var wire 1 z! ramOut[7]~output_o $end
$var wire 1 {! ramOut[6]~output_o $end
$var wire 1 |! ramOut[5]~output_o $end
$var wire 1 }! ramOut[4]~output_o $end
$var wire 1 ~! ramOut[3]~output_o $end
$var wire 1 !" ramOut[2]~output_o $end
$var wire 1 "" ramOut[1]~output_o $end
$var wire 1 #" ramOut[0]~output_o $end
$var wire 1 $" val[7]~output_o $end
$var wire 1 %" val[6]~output_o $end
$var wire 1 &" val[5]~output_o $end
$var wire 1 '" val[4]~output_o $end
$var wire 1 (" val[3]~output_o $end
$var wire 1 )" val[2]~output_o $end
$var wire 1 *" val[1]~output_o $end
$var wire 1 +" val[0]~output_o $end
$var wire 1 ," clk~input_o $end
$var wire 1 -" labelPassButton~input_o $end
$var wire 1 ." clk~inputclkctrl_outclk $end
$var wire 1 /" inst2|outputPC[0]~8_combout $end
$var wire 1 0" startAddress[0]~input_o $end
$var wire 1 1" start~input_o $end
$var wire 1 2" inst2|outputPC[0]~9 $end
$var wire 1 3" inst2|outputPC[1]~10_combout $end
$var wire 1 4" startAddress[1]~input_o $end
$var wire 1 5" inst2|outputPC[1]~11 $end
$var wire 1 6" inst2|outputPC[2]~12_combout $end
$var wire 1 7" startAddress[2]~input_o $end
$var wire 1 8" inst2|outputPC[2]~13 $end
$var wire 1 9" inst2|outputPC[3]~14_combout $end
$var wire 1 :" startAddress[3]~input_o $end
$var wire 1 ;" inst2|outputPC[3]~15 $end
$var wire 1 <" inst2|outputPC[4]~16_combout $end
$var wire 1 =" startAddress[4]~input_o $end
$var wire 1 >" inst2|outputPC[4]~17 $end
$var wire 1 ?" inst2|outputPC[5]~18_combout $end
$var wire 1 @" startAddress[5]~input_o $end
$var wire 1 A" inst2|outputPC[5]~19 $end
$var wire 1 B" inst2|outputPC[6]~20_combout $end
$var wire 1 C" startAddress[6]~input_o $end
$var wire 1 D" inst2|outputPC[6]~21 $end
$var wire 1 E" inst2|outputPC[7]~22_combout $end
$var wire 1 F" startAddress[7]~input_o $end
$var wire 1 G" inst2|cycleCounter[0]~45_combout $end
$var wire 1 H" inst2|cycleCounter[1]~15_combout $end
$var wire 1 I" inst2|cycleCounter[1]~16 $end
$var wire 1 J" inst2|cycleCounter[2]~17_combout $end
$var wire 1 K" inst2|cycleCounter[2]~18 $end
$var wire 1 L" inst2|cycleCounter[3]~19_combout $end
$var wire 1 M" inst2|cycleCounter[3]~20 $end
$var wire 1 N" inst2|cycleCounter[4]~21_combout $end
$var wire 1 O" inst2|cycleCounter[4]~22 $end
$var wire 1 P" inst2|cycleCounter[5]~23_combout $end
$var wire 1 Q" inst2|cycleCounter[5]~24 $end
$var wire 1 R" inst2|cycleCounter[6]~25_combout $end
$var wire 1 S" inst2|cycleCounter[6]~26 $end
$var wire 1 T" inst2|cycleCounter[7]~27_combout $end
$var wire 1 U" inst2|cycleCounter[7]~28 $end
$var wire 1 V" inst2|cycleCounter[8]~29_combout $end
$var wire 1 W" inst2|cycleCounter[8]~30 $end
$var wire 1 X" inst2|cycleCounter[9]~31_combout $end
$var wire 1 Y" inst2|cycleCounter[9]~32 $end
$var wire 1 Z" inst2|cycleCounter[10]~33_combout $end
$var wire 1 [" inst2|cycleCounter[10]~34 $end
$var wire 1 \" inst2|cycleCounter[11]~35_combout $end
$var wire 1 ]" inst2|cycleCounter[11]~36 $end
$var wire 1 ^" inst2|cycleCounter[12]~37_combout $end
$var wire 1 _" inst2|cycleCounter[12]~38 $end
$var wire 1 `" inst2|cycleCounter[13]~39_combout $end
$var wire 1 a" inst2|cycleCounter[13]~40 $end
$var wire 1 b" inst2|cycleCounter[14]~41_combout $end
$var wire 1 c" inst2|cycleCounter[14]~42 $end
$var wire 1 d" inst2|cycleCounter[15]~43_combout $end
$var wire 1 e" inst|addr_reg[4]~feeder_combout $end
$var wire 1 f" inst|addr_reg[2]~feeder_combout $end
$var wire 1 g" inst|addr_reg[3]~feeder_combout $end
$var wire 1 h" inst|addr_reg[1]~feeder_combout $end
$var wire 1 i" inst|rom~6_combout $end
$var wire 1 j" inst|rom~5_combout $end
$var wire 1 k" inst|addr_reg[0]~feeder_combout $end
$var wire 1 l" inst|rom~4_combout $end
$var wire 1 m" inst|rom~7_combout $end
$var wire 1 n" inst|rom~10_combout $end
$var wire 1 o" inst|rom~9_combout $end
$var wire 1 p" inst|rom~11_combout $end
$var wire 1 q" inst|rom~12_combout $end
$var wire 1 r" inst|rom~8_combout $end
$var wire 1 s" inst|rom~13_combout $end
$var wire 1 t" inst|rom~14_combout $end
$var wire 1 u" inst|rom~24_combout $end
$var wire 1 v" inst|rom~22_combout $end
$var wire 1 w" inst|rom~21_combout $end
$var wire 1 x" inst|rom~23_combout $end
$var wire 1 y" inst|rom~20_combout $end
$var wire 1 z" inst|rom~25_combout $end
$var wire 1 {" inst|rom~17_combout $end
$var wire 1 |" inst|rom~15_combout $end
$var wire 1 }" inst|rom~16_combout $end
$var wire 1 ~" inst|rom~18_combout $end
$var wire 1 !# inst|rom~83_combout $end
$var wire 1 "# inst|rom~30_combout $end
$var wire 1 ## inst|rom~31_combout $end
$var wire 1 $# inst|rom~26_combout $end
$var wire 1 %# inst|rom~27_combout $end
$var wire 1 &# inst|rom~28_combout $end
$var wire 1 '# inst|rom~29_combout $end
$var wire 1 (# inst|rom~32_combout $end
$var wire 1 )# inst|rom~33_combout $end
$var wire 1 *# inst|rom~34_combout $end
$var wire 1 +# inst|rom~42_combout $end
$var wire 1 ,# inst|rom~38_combout $end
$var wire 1 -# inst|rom~39_combout $end
$var wire 1 .# inst|rom~40_combout $end
$var wire 1 /# inst|rom~41_combout $end
$var wire 1 0# inst|rom~43_combout $end
$var wire 1 1# inst|rom~35_combout $end
$var wire 1 2# inst|rom~36_combout $end
$var wire 1 3# inst|rom~37_combout $end
$var wire 1 4# inst|rom~44_combout $end
$var wire 1 5# inst|rom~50_combout $end
$var wire 1 6# inst|rom~47_combout $end
$var wire 1 7# inst|rom~45_combout $end
$var wire 1 8# inst|rom~48_combout $end
$var wire 1 9# inst|rom~49_combout $end
$var wire 1 :# inst|rom~51_combout $end
$var wire 1 ;# inst|rom~46_combout $end
$var wire 1 <# inst|rom~52_combout $end
$var wire 1 =# inst|rom~53_combout $end
$var wire 1 ># inst|rom~54_combout $end
$var wire 1 ?# inst|rom~55_combout $end
$var wire 1 @# inst|rom~58_combout $end
$var wire 1 A# inst|rom~57_combout $end
$var wire 1 B# inst|rom~59_combout $end
$var wire 1 C# inst|rom~60_combout $end
$var wire 1 D# inst|rom~56_combout $end
$var wire 1 E# inst|rom~61_combout $end
$var wire 1 F# inst|rom~62_combout $end
$var wire 1 G# inst|rom~68_combout $end
$var wire 1 H# inst|rom~69_combout $end
$var wire 1 I# inst|rom~19_combout $end
$var wire 1 J# inst|rom~71_combout $end
$var wire 1 K# inst|rom~70_combout $end
$var wire 1 L# inst|rom~72_combout $end
$var wire 1 M# inst|rom~65_combout $end
$var wire 1 N# inst|rom~66_combout $end
$var wire 1 O# inst|rom~63_combout $end
$var wire 1 P# inst|rom~64_combout $end
$var wire 1 Q# inst|rom~67_combout $end
$var wire 1 R# inst|rom~73_combout $end
$var wire 1 S# inst|rom~78_combout $end
$var wire 1 T# inst|rom~79_combout $end
$var wire 1 U# inst|rom~80_combout $end
$var wire 1 V# inst|rom~77_combout $end
$var wire 1 W# inst|rom~81_combout $end
$var wire 1 X# inst|rom~82_combout $end
$var wire 1 Y# inst|rom~74_combout $end
$var wire 1 Z# inst|rom~75_combout $end
$var wire 1 [# inst|rom~76_combout $end
$var wire 1 \# inst|rom~84_combout $end
$var wire 1 ]# inst2|outputPC [7] $end
$var wire 1 ^# inst2|outputPC [6] $end
$var wire 1 _# inst2|outputPC [5] $end
$var wire 1 `# inst2|outputPC [4] $end
$var wire 1 a# inst2|outputPC [3] $end
$var wire 1 b# inst2|outputPC [2] $end
$var wire 1 c# inst2|outputPC [1] $end
$var wire 1 d# inst2|outputPC [0] $end
$var wire 1 e# inst2|cycleCounter [15] $end
$var wire 1 f# inst2|cycleCounter [14] $end
$var wire 1 g# inst2|cycleCounter [13] $end
$var wire 1 h# inst2|cycleCounter [12] $end
$var wire 1 i# inst2|cycleCounter [11] $end
$var wire 1 j# inst2|cycleCounter [10] $end
$var wire 1 k# inst2|cycleCounter [9] $end
$var wire 1 l# inst2|cycleCounter [8] $end
$var wire 1 m# inst2|cycleCounter [7] $end
$var wire 1 n# inst2|cycleCounter [6] $end
$var wire 1 o# inst2|cycleCounter [5] $end
$var wire 1 p# inst2|cycleCounter [4] $end
$var wire 1 q# inst2|cycleCounter [3] $end
$var wire 1 r# inst2|cycleCounter [2] $end
$var wire 1 s# inst2|cycleCounter [1] $end
$var wire 1 t# inst2|cycleCounter [0] $end
$var wire 1 u# inst|addr_reg [7] $end
$var wire 1 v# inst|addr_reg [6] $end
$var wire 1 w# inst|addr_reg [5] $end
$var wire 1 x# inst|addr_reg [4] $end
$var wire 1 y# inst|addr_reg [3] $end
$var wire 1 z# inst|addr_reg [2] $end
$var wire 1 {# inst|addr_reg [1] $end
$var wire 1 |# inst|addr_reg [0] $end
$upscope $end
$upscope $end
$enddefinitions $end
#0
$dumpvars
0!
1"
1#
b0 $
0%
0-
0,
0+
0*
0)
0(
0'
0&
05
04
03
02
01
00
0/
0.
0=
0<
0;
0:
09
08
07
06
0E
0D
0C
0B
0A
0@
0?
0>
0F
0G
0O
0N
0M
0L
0K
0J
0I
0H
0_
0^
0]
0\
0[
0Z
0Y
0X
0W
0V
0U
0T
0S
0R
0Q
0P
0`
0d
0c
0b
0a
0l
0k
0j
0i
1h
0g
1f
1e
0p
0o
0n
0m
1q
0r
0z
0y
0x
0w
0v
0u
0t
0s
0$!
0#!
0"!
0!!
0~
0}
0|
0{
x%!
0&!
1'!
x(!
1)!
1*!
1+!
0,!
0-!
0.!
0/!
10!
01!
02!
03!
04!
05!
06!
07!
08!
09!
0:!
0;!
0<!
0=!
0>!
0?!
0@!
0A!
0B!
0C!
0D!
0E!
0F!
0G!
0H!
0I!
0J!
0K!
0L!
0M!
0N!
0O!
0P!
0Q!
0R!
0S!
0T!
0U!
0V!
0W!
0X!
0Y!
0Z!
0[!
0\!
0]!
0^!
0_!
0`!
0a!
0b!
0c!
0d!
0e!
0f!
0g!
0h!
0i!
0j!
0k!
0l!
0m!
1n!
1o!
0p!
1q!
0r!
0s!
0t!
0u!
0v!
0w!
0x!
0y!
0z!
0{!
0|!
0}!
0~!
0!"
0""
0#"
0$"
0%"
0&"
0'"
0("
0)"
0*"
0+"
0,"
1-"
0."
1/"
00"
11"
02"
03"
04"
15"
06"
07"
08"
09"
0:"
1;"
0<"
0="
0>"
0?"
0@"
1A"
0B"
0C"
0D"
0E"
0F"
1G"
0H"
0I"
0J"
1K"
0L"
0M"
0N"
1O"
0P"
0Q"
0R"
1S"
0T"
0U"
0V"
1W"
0X"
0Y"
0Z"
1["
0\"
0]"
0^"
1_"
0`"
0a"
0b"
1c"
0d"
0e"
0f"
0g"
0h"
0i"
0j"
0k"
0l"
0m"
0n"
0o"
1p"
0q"
0r"
1s"
1t"
0u"
0v"
0w"
1x"
0y"
1z"
0{"
0|"
0}"
0~"
1!#
0"#
0##
0$#
0%#
0&#
0'#
0(#
0)#
0*#
0+#
0,#
0-#
0.#
1/#
10#
01#
02#
03#
14#
05#
06#
07#
08#
09#
0:#
0;#
0<#
0=#
0>#
0?#
0@#
0A#
0B#
0C#
0D#
0E#
0F#
0G#
0H#
1I#
0J#
0K#
0L#
0M#
0N#
0O#
0P#
0Q#
0R#
0S#
0T#
0U#
0V#
0W#
0X#
0Y#
0Z#
0[#
0\#
0d#
0c#
0b#
0a#
0`#
0_#
0^#
0]#
0t#
0s#
0r#
0q#
0p#
0o#
0n#
0m#
0l#
0k#
0j#
0i#
0h#
0g#
0f#
0e#
0|#
0{#
0z#
0y#
0x#
0w#
0v#
0u#
$end
#20000
1!
0%!
1,"
1."
1-!
1G
1t#
1i!
1_
1H"
0G"
#40000
0#
0"
0!
01"
1%!
0-"
0,"
0."
0-!
00!
0G
0q
#60000
1!
0%!
1,"
1."
1-!
1G
1s#
0t#
1d#
1Y!
0i!
1h!
12"
1O
0_
1^
1G"
1k"
0/"
13"
#80000
0!
1%!
0,"
0."
0-!
0G
#100000
1!
0%!
1,"
1."
1-!
1G
1|#
1t#
1c#
0d#
0Y!
1X!
1i!
1Z#
1Y#
1X#
1P#
1O#
1J#
1G#
1D#
1C#
1A#
16#
1.#
1-#
1)#
1w"
1v"
1r"
1n"
1I"
05"
02"
0O
1N
1_
0H"
0G"
1h"
03"
0k"
1/"
0/#
0x"
0p"
15"
1\#
1J"
16"
13"
1u!
00#
0z"
0s"
1l
06"
04#
0!#
0t"
0n!
0o!
0q!
0e
0f
0h
#120000
0!
1%!
0,"
0."
0-!
0G
#140000
1!
0%!
1,"
1."
1-!
1G
0|#
1{#
1r#
0s#
0t#
1d#
1Y!
0i!
0h!
1g!
0Y#
0X#
0P#
0O#
0J#
0G#
0D#
0A#
15#
12#
11#
0.#
1,#
1+#
0)#
0w"
0v"
1u"
0r"
0n"
1W#
1T#
1N#
1=#
1&#
1i"
0K"
0I"
12"
1O
0_
0^
1]
0J"
1G"
1k"
0/"
1/#
1x"
1p"
1U#
1K"
05"
0\#
1L"
1J"
03"
0u!
10#
1z"
1s"
1X#
0l
0L"
16"
14#
1!#
1t"
1\#
1u!
1n!
1o!
1q!
1l
1e
1f
1h
#160000
0!
1%!
0,"
0."
0-!
0G
#180000
1!
0%!
1,"
1."
1-!
1G
1|#
1t#
1b#
0c#
0d#
0Y!
0X!
1W!
1i!
0Z#
1Y#
0X#
0U#
1O#
1J#
1D#
1A#
1@#
17#
02#
01#
1.#
0-#
1)#
1w"
0u"
1r"
1q"
18"
15"
02"
0O
0N
1M
1_
1H"
0G"
1f"
06"
0h"
13"
0k"
1/"
1X#
1Q#
1B#
19#
0/#
08"
0\#
19"
16"
03"
0u!
1E#
1:#
00#
0l
1\#
1R#
09"
1t!
1u!
1k
1l
1F#
1<#
04#
0q!
1r!
1s!
0h
1i
1j
#200000
0!
1%!
0,"
0."
0-!
0G
#220000
1!
0%!
1,"
1."
1-!
1G
0|#
0{#
1z#
1s#
0t#
1d#
1Y!
0i!
1h!
0X#
1U#
1K#
1G#
0D#
0@#
07#
1-#
0,#
0)#
1}"
1{"
0w"
0r"
0q"
0W#
1V#
0T#
0N#
0&#
1j"
0p"
12"
1O
0_
1^
1G"
1k"
0/"
1X#
1L#
0B#
09#
0x"
0s"
0U#
0Q#
0\#
13"
0u!
0E#
0:#
0z"
0X#
0l
1\#
0t"
0n!
1u!
0e
1l
0F#
0<#
0!#
0\#
0u!
0o!
0r!
0s!
0l
0f
0i
0j
#240000
0!
1%!
0,"
0."
0-!
0G
#260000
1!
0%!
1,"
1."
1-!
1G
1|#
1t#
1c#
0d#
0Y!
1X!
1i!
0Y#
0O#
1D#
0C#
1@#
18#
06#
11#
0.#
0-#
0+#
1)#
0{"
1w"
1v"
1r"
1n"
1I"
05"
02"
0O
1N
1_
0H"
0G"
1h"
03"
0k"
1/"
1B#
1/#
1x"
0K"
18"
15"
0J"
06"
13"
1E#
10#
1z"
08"
1L"
19"
16"
1F#
14#
1!#
09"
1o!
1q!
1s!
1f
1h
1j
#280000
0!
1%!
0,"
0."
0-!
0G
#300000
1!
0%!
1,"
1."
1-!
1G
0|#
1{#
1q#
0r#
0s#
0t#
1d#
1Y!
0i!
0h!
0g!
1f!
1O#
0G#
0D#
0A#
0@#
08#
05#
12#
1.#
1-#
0)#
1$#
1{"
0w"
0v"
1u"
0r"
0n"
1T#
1N#
0L#
1(#
1&#
1M"
1K"
0I"
12"
1O
0_
0^
0]
1\
0L"
1J"
1G"
1k"
0/"
1Q#
0B#
0/#
0x"
1U#
0M"
05"
0R#
1N"
1L"
0J"
03"
0t!
0E#
00#
0z"
1X#
18"
0k
1R#
0N"
06"
1t!
1k
0F#
04#
0!#
1\#
19"
1u!
0o!
0q!
0s!
1l
0f
0h
0j
#320000
0!
1%!
0,"
0."
0-!
0G
#340000
1!
0%!
1,"
1."
1-!
1G
1|#
1t#
1a#
0b#
0c#
0d#
0Y!
0X!
0W!
1V!
1i!
1Y#
0U#
0O#
1G#
16#
15#
0.#
0-#
1+#
1)#
0$#
0{"
1w"
0u"
1r"
1q"
0;"
08"
15"
02"
0O
0N
0M
1L
1_
1H"
0G"
1g"
09"
0f"
16"
0h"
13"
0k"
1/"
0X#
0Q#
1/#
1x"
1;"
1*#
1<"
19"
06"
03"
1p!
10#
1z"
1g
0\#
0R#
0<"
0t!
0u!
0k
0l
14#
1!#
1o!
1q!
1f
1h
#360000
0!
1%!
0,"
0."
0-!
0G
#380000
1!
0%!
1,"
1."
1-!
1G
0|#
0{#
1y#
0z#
1s#
0t#
1d#
1Y!
0i!
1h!
1O#
0J#
0G#
1C#
02#
01#
0+#
0)#
0}"
1{"
1y"
0w"
1v"
0r"
0q"
0V#
0T#
0N#
1L#
0(#
0&#
1s"
12"
1O
0_
1^
1G"
1k"
0/"
0x"
0s"
0*#
1R#
1t"
13"
1n!
1t!
0p!
0z"
1e
1k
0g
0t"
0n!
0e
0!#
0o!
0f
#400000
0!
1%!
0,"
0."
0-!
0G
#420000
1!
0%!
1,"
1."
1-!
1G
1|#
1t#
1c#
0d#
0Y!
1X!
1i!
1Z#
0Y#
1X#
1U#
1P#
0O#
0K#
1J#
1G#
0C#
1A#
12#
11#
1.#
1-#
1)#
0{"
0y"
1w"
0v"
1r"
1n"
1I"
05"
02"
0O
1N
1_
0H"
0G"
1h"
03"
0k"
1/"
0L#
0/#
1x"
1s"
15"
1\#
1J"
16"
13"
1u!
00#
1z"
1l
0R#
1t"
06"
1n!
0t!
1e
0k
04#
1!#
1o!
0q!
1f
0h
#440000
0!
1%!
0,"
0."
0-!
0G
#460000
1!
0%!
1,"
1."
1-!
1G
0|#
1{#
1r#
0s#
0t#
1d#
1Y!
0i!
0h!
1g!
0Z#
0U#
0P#
1O#
1K#
0J#
1D#
1C#
0A#
18#
02#
0.#
1,#
1+#
0)#
1{"
1y"
0w"
1v"
1u"
0r"
0n"
1W#
1T#
1N#
1>#
0=#
0K"
0I"
12"
1O
0_
0^
1]
0J"
1G"
1k"
0/"
0X#
1Q#
0x"
0s"
1M"
1K"
05"
0L"
1J"
03"
0z"
0M"
0\#
1R#
0t"
1N"
1L"
16"
0n!
1t!
0u!
0e
1k
0l
0!#
0N"
0o!
0f
#480000
0!
1%!
0,"
0."
0-!
0G
#500000
1!
0%!
1,"
1."
1-!
1G
1|#
1t#
1b#
0c#
0d#
0Y!
0X!
1W!
1i!
1Z#
1X#
1U#
0O#
0K#
1J#
0G#
0D#
0C#
1A#
06#
05#
12#
1.#
0-#
1)#
0{"
0y"
1w"
0v"
0u"
1r"
1q"
18"
15"
02"
0O
0N
1M
1_
1H"
0G"
1f"
06"
0h"
13"
0k"
1/"
0X#
0Q#
1/#
1x"
1s"
0;"
08"
1\#
09"
16"
03"
1u!
10#
1z"
1;"
1l
0\#
0R#
1t"
1<"
19"
1n!
0t!
0u!
1e
0k
0l
14#
1!#
0<"
1o!
1q!
1f
1h
#520000
0!
1%!
0,"
0."
0-!
0G
#540000
1!
0%!
1,"
1."
1-!
1G
0|#
0{#
1z#
1s#
0t#
1d#
1Y!
0i!
1h!
1X#
0U#
1P#
1O#
1G#
1D#
1@#
08#
16#
15#
02#
01#
1-#
0,#
0)#
1y"
0w"
1v"
0r"
0q"
0W#
1V#
0T#
0N#
0>#
1(#
1"#
0j"
0i"
1p"
12"
1O
0_
1^
1G"
1k"
0/"
0X#
1B#
0/#
0x"
0s"
1\#
13"
1u!
1E#
00#
0z"
1l
0\#
0t"
0n!
0u!
0e
0l
1F#
04#
0!#
0o!
0q!
1s!
0f
0h
1j
#560000
0!
1%!
0,"
0."
0-!
0G
#580000
1!
0%!
1,"
1."
1-!
1G
1|#
1t#
1c#
0d#
0Y!
1X!
1i!
0Z#
1U#
0P#
0O#
0J#
0G#
0D#
0@#
0.#
0-#
0+#
1)#
1}"
0y"
1w"
0v"
1r"
1n"
1I"
05"
02"
0O
1N
1_
0H"
0G"
1h"
03"
0k"
1/"
1X#
0B#
1/#
1x"
0K"
18"
15"
1*#
0J"
06"
13"
1p!
0E#
10#
1z"
1M"
0;"
08"
1g
1\#
0L"
09"
16"
1u!
1;"
1l
0F#
14#
1!#
1N"
1<"
19"
1o!
1q!
0s!
1f
1h
0j
0<"
#600000
0!
1%!
0,"
0."
0-!
0G
#620000
1!
0%!
1,"
1."
1-!
1G
0|#
1{#
1p#
0q#
0r#
0s#
0t#
1d#
1Y!
0i!
0h!
0g!
0f!
1e!
1Y#
0U#
1P#
1O#
1J#
1D#
05#
1.#
1-#
0)#
1$#
0}"
1y"
0w"
1v"
1u"
0r"
0n"
1T#
1N#
0(#
0"#
1i"
0O"
0M"
1K"
0I"
12"
1O
0_
0^
0]
0\
1[
0N"
1L"
1J"
1G"
1k"
0/"
0X#
1Q#
0/#
0x"
1O"
05"
0*#
1P"
1N"
0L"
0J"
03"
0p!
00#
0z"
18"
0g
0\#
1R#
0P"
06"
1t!
0u!
0;"
1k
0l
04#
0!#
09"
0o!
0q!
0f
0h
1<"
#640000
0!
1%!
0,"
0."
0-!
0G
