Project 4A/simulation/qsim/CS141L.msim.vcd
$comment
	File created using the following command:
		vcd file CS141L.msim.vcd -direction
$end
$date
	Fri Feb 20 08:18:44 2015
$end
$version
	ModelSim Version 10.3c
$end
$timescale
	1ps
$end

$scope module CS141L_vlg_vec_tst $end
$var reg 1 ! clk $end
$var reg 1 " labelPassButton $end
$var reg 1 # start $end
$var reg 8 $ startAddress [7:0] $end
$var reg 1 % zero $end
$var wire 1 & addr [7] $end
$var wire 1 ' addr [6] $end
$var wire 1 ( addr [5] $end
$var wire 1 ) addr [4] $end
$var wire 1 * addr [3] $end
$var wire 1 + addr [2] $end
$var wire 1 , addr [1] $end
$var wire 1 - addr [0] $end
$var wire 1 . aluIn0 [7] $end
$var wire 1 / aluIn0 [6] $end
$var wire 1 0 aluIn0 [5] $end
$var wire 1 1 aluIn0 [4] $end
$var wire 1 2 aluIn0 [3] $end
$var wire 1 3 aluIn0 [2] $end
$var wire 1 4 aluIn0 [1] $end
$var wire 1 5 aluIn0 [0] $end
$var wire 1 6 aluIn1 [7] $end
$var wire 1 7 aluIn1 [6] $end
$var wire 1 8 aluIn1 [5] $end
$var wire 1 9 aluIn1 [4] $end
$var wire 1 : aluIn1 [3] $end
$var wire 1 ; aluIn1 [2] $end
$var wire 1 < aluIn1 [1] $end
$var wire 1 = aluIn1 [0] $end
$var wire 1 > aluRes [7] $end
$var wire 1 ? aluRes [6] $end
$var wire 1 @ aluRes [5] $end
$var wire 1 A aluRes [4] $end
$var wire 1 B aluRes [3] $end
$var wire 1 C aluRes [2] $end
$var wire 1 D aluRes [1] $end
$var wire 1 E aluRes [0] $end
$var wire 1 F clock_out $end
$var wire 1 G currentpc [7] $end
$var wire 1 H currentpc [6] $end
$var wire 1 I currentpc [5] $end
$var wire 1 J currentpc [4] $end
$var wire 1 K currentpc [3] $end
$var wire 1 L currentpc [2] $end
$var wire 1 M currentpc [1] $end
$var wire 1 N currentpc [0] $end
$var wire 1 O cycleCounter [15] $end
$var wire 1 P cycleCounter [14] $end
$var wire 1 Q cycleCounter [13] $end
$var wire 1 R cycleCounter [12] $end
$var wire 1 S cycleCounter [11] $end
$var wire 1 T cycleCounter [10] $end
$var wire 1 U cycleCounter [9] $end
$var wire 1 V cycleCounter [8] $end
$var wire 1 W cycleCounter [7] $end
$var wire 1 X cycleCounter [6] $end
$var wire 1 Y cycleCounter [5] $end
$var wire 1 Z cycleCounter [4] $end
$var wire 1 [ cycleCounter [3] $end
$var wire 1 \ cycleCounter [2] $end
$var wire 1 ] cycleCounter [1] $end
$var wire 1 ^ cycleCounter [0] $end
$var wire 1 _ data [7] $end
$var wire 1 ` data [6] $end
$var wire 1 a data [5] $end
$var wire 1 b data [4] $end
$var wire 1 c data [3] $end
$var wire 1 d data [2] $end
$var wire 1 e data [1] $end
$var wire 1 f data [0] $end
$var wire 1 g halt_out $end
$var wire 1 h instruction_value [7] $end
$var wire 1 i instruction_value [6] $end
$var wire 1 j instruction_value [5] $end
$var wire 1 k instruction_value [4] $end
$var wire 1 l instruction_value [3] $end
$var wire 1 m instruction_value [2] $end
$var wire 1 n instruction_value [1] $end
$var wire 1 o instruction_value [0] $end
$var wire 1 p opcode_out [3] $end
$var wire 1 q opcode_out [2] $end
$var wire 1 r opcode_out [1] $end
$var wire 1 s opcode_out [0] $end
$var wire 1 t orOut $end
$var wire 1 u outPCResetFlag $end
$var wire 1 v ramOut [7] $end
$var wire 1 w ramOut [6] $end
$var wire 1 x ramOut [5] $end
$var wire 1 y ramOut [4] $end
$var wire 1 z ramOut [3] $end
$var wire 1 { ramOut [2] $end
$var wire 1 | ramOut [1] $end
$var wire 1 } ramOut [0] $end
$var wire 1 ~ val [7] $end
$var wire 1 !! val [6] $end
$var wire 1 "! val [5] $end
$var wire 1 #! val [4] $end
$var wire 1 $! val [3] $end
$var wire 1 %! val [2] $end
$var wire 1 &! val [1] $end
$var wire 1 '! val [0] $end
$var wire 1 (! sampler $end

$scope module i1 $end
$var wire 1 )! gnd $end
$var wire 1 *! vcc $end
$var wire 1 +! unknown $end
$var tri1 1 ,! devclrn $end
$var tri1 1 -! devpor $end
$var tri1 1 .! devoe $end
$var wire 1 /! clock_out~output_o $end
$var wire 1 0! halt_out~output_o $end
$var wire 1 1! outPCResetFlag~output_o $end
$var wire 1 2! orOut~output_o $end
$var wire 1 3! addr[7]~output_o $end
$var wire 1 4! addr[6]~output_o $end
$var wire 1 5! addr[5]~output_o $end
$var wire 1 6! addr[4]~output_o $end
$var wire 1 7! addr[3]~output_o $end
$var wire 1 8! addr[2]~output_o $end
$var wire 1 9! addr[1]~output_o $end
$var wire 1 :! addr[0]~output_o $end
$var wire 1 ;! aluIn0[7]~output_o $end
$var wire 1 <! aluIn0[6]~output_o $end
$var wire 1 =! aluIn0[5]~output_o $end
$var wire 1 >! aluIn0[4]~output_o $end
$var wire 1 ?! aluIn0[3]~output_o $end
$var wire 1 @! aluIn0[2]~output_o $end
$var wire 1 A! aluIn0[1]~output_o $end
$var wire 1 B! aluIn0[0]~output_o $end
$var wire 1 C! aluIn1[7]~output_o $end
$var wire 1 D! aluIn1[6]~output_o $end
$var wire 1 E! aluIn1[5]~output_o $end
$var wire 1 F! aluIn1[4]~output_o $end
$var wire 1 G! aluIn1[3]~output_o $end
$var wire 1 H! aluIn1[2]~output_o $end
$var wire 1 I! aluIn1[1]~output_o $end
$var wire 1 J! aluIn1[0]~output_o $end
$var wire 1 K! aluRes[7]~output_o $end
$var wire 1 L! aluRes[6]~output_o $end
$var wire 1 M! aluRes[5]~output_o $end
$var wire 1 N! aluRes[4]~output_o $end
$var wire 1 O! aluRes[3]~output_o $end
$var wire 1 P! aluRes[2]~output_o $end
$var wire 1 Q! aluRes[1]~output_o $end
$var wire 1 R! aluRes[0]~output_o $end
$var wire 1 S! currentpc[7]~output_o $end
$var wire 1 T! currentpc[6]~output_o $end
$var wire 1 U! currentpc[5]~output_o $end
$var wire 1 V! currentpc[4]~output_o $end
$var wire 1 W! currentpc[3]~output_o $end
$var wire 1 X! currentpc[2]~output_o $end
$var wire 1 Y! currentpc[1]~output_o $end
$var wire 1 Z! currentpc[0]~output_o $end
$var wire 1 [! cycleCounter[15]~output_o $end
$var wire 1 \! cycleCounter[14]~output_o $end
$var wire 1 ]! cycleCounter[13]~output_o $end
$var wire 1 ^! cycleCounter[12]~output_o $end
$var wire 1 _! cycleCounter[11]~output_o $end
$var wire 1 `! cycleCounter[10]~output_o $end
$var wire 1 a! cycleCounter[9]~output_o $end
$var wire 1 b! cycleCounter[8]~output_o $end
$var wire 1 c! cycleCounter[7]~output_o $end
$var wire 1 d! cycleCounter[6]~output_o $end
$var wire 1 e! cycleCounter[5]~output_o $end
$var wire 1 f! cycleCounter[4]~output_o $end
$var wire 1 g! cycleCounter[3]~output_o $end
$var wire 1 h! cycleCounter[2]~output_o $end
$var wire 1 i! cycleCounter[1]~output_o $end
$var wire 1 j! cycleCounter[0]~output_o $end
$var wire 1 k! data[7]~output_o $end
$var wire 1 l! data[6]~output_o $end
$var wire 1 m! data[5]~output_o $end
$var wire 1 n! data[4]~output_o $end
$var wire 1 o! data[3]~output_o $end
$var wire 1 p! data[2]~output_o $end
$var wire 1 q! data[1]~output_o $end
$var wire 1 r! data[0]~output_o $end
$var wire 1 s! instruction_value[7]~output_o $end
$var wire 1 t! instruction_value[6]~output_o $end
$var wire 1 u! instruction_value[5]~output_o $end
$var wire 1 v! instruction_value[4]~output_o $end
$var wire 1 w! instruction_value[3]~output_o $end
$var wire 1 x! instruction_value[2]~output_o $end
$var wire 1 y! instruction_value[1]~output_o $end
$var wire 1 z! instruction_value[0]~output_o $end
$var wire 1 {! opcode_out[3]~output_o $end
$var wire 1 |! opcode_out[2]~output_o $end
$var wire 1 }! opcode_out[1]~output_o $end
$var wire 1 ~! opcode_out[0]~output_o $end
$var wire 1 !" ramOut[7]~output_o $end
$var wire 1 "" ramOut[6]~output_o $end
$var wire 1 #" ramOut[5]~output_o $end
$var wire 1 $" ramOut[4]~output_o $end
$var wire 1 %" ramOut[3]~output_o $end
$var wire 1 &" ramOut[2]~output_o $end
$var wire 1 '" ramOut[1]~output_o $end
$var wire 1 (" ramOut[0]~output_o $end
$var wire 1 )" val[7]~output_o $end
$var wire 1 *" val[6]~output_o $end
$var wire 1 +" val[5]~output_o $end
$var wire 1 ," val[4]~output_o $end
$var wire 1 -" val[3]~output_o $end
$var wire 1 ." val[2]~output_o $end
$var wire 1 /" val[1]~output_o $end
$var wire 1 0" val[0]~output_o $end
$var wire 1 1" zero~input_o $end
$var wire 1 2" inst27|5~clkctrl_outclk $end
$var wire 1 3" labelPassButton~input_o $end
$var wire 1 4" inst|addr_reg[5]~feeder_combout $end
$var wire 1 5" inst4|opcode~0_combout $end
$var wire 1 6" inst|rom~33_combout $end
$var wire 1 7" inst|rom~29_combout $end
$var wire 1 8" inst4|Decoder0~2_combout $end
$var wire 1 9" inst4|labelFlag~q $end
$var wire 1 :" inst4|labelValue~4_combout $end
$var wire 1 ;" inst4|opcode~3_combout $end
$var wire 1 <" inst4|opcode~2_combout $end
$var wire 1 =" hjkkasdf|Mux16~0_combout $end
$var wire 1 >" hjkkasdf|Mux17~0_combout $end
$var wire 1 ?" hjkkasdf|Mux17~0clkctrl_outclk $end
$var wire 1 @" bm3|$00000|auto_generated|result_node[3]~4_combout $end
$var wire 1 A" inst9|labelfile~25_combout $end
$var wire 1 B" inst9|labelfile~3_q $end
$var wire 1 C" inst9|labelfile~11feeder_combout $end
$var wire 1 D" inst9|labelfile~24_combout $end
$var wire 1 E" inst9|labelfile~11_q $end
$var wire 1 F" inst9|labelfile~20_combout $end
$var wire 1 G" inst4|Decoder0~0_combout $end
$var wire 1 H" inst4|branchFlag~q $end
$var wire 1 I" inst2|Add0~3 $end
$var wire 1 J" inst2|Add0~5 $end
$var wire 1 K" inst2|Add0~6_combout $end
$var wire 1 L" inst2|outputPC[3]~4_combout $end
$var wire 1 M" startAddress[3]~input_o $end
$var wire 1 N" start~input_o $end
$var wire 1 O" inst4|outputPCResetFlag~0_combout $end
$var wire 1 P" inst4|outputPCResetFlag~1_combout $end
$var wire 1 Q" inst4|outputPCResetFlag~q $end
$var wire 1 R" inst2|always0~0_combout $end
$var wire 1 S" hjkkasdf|lessThanFlag~1_combout $end
$var wire 1 T" inst4|WideOr3~0_combout $end
$var wire 1 U" inst4|immediateFlag~q $end
$var wire 1 V" hjkkasdf|lessThanFlag~0_combout $end
$var wire 1 W" inst2|outputPC[7]~8_combout $end
$var wire 1 X" inst|rom~40_combout $end
$var wire 1 Y" inst|rom~18_combout $end
$var wire 1 Z" inst|rom~41_combout $end
$var wire 1 [" inst|rom~43_combout $end
$var wire 1 \" inst|rom~28_combout $end
$var wire 1 ]" inst|rom~44_combout $end
$var wire 1 ^" inst|rom~45_combout $end
$var wire 1 _" inst|rom~42_combout $end
$var wire 1 `" inst|rom~93_combout $end
$var wire 1 a" inst|rom~94_combout $end
$var wire 1 b" inst4|opcode~1_combout $end
$var wire 1 c" inst4|labelValue~5_combout $end
$var wire 1 d" bm3|$00000|auto_generated|result_node[2]~5_combout $end
$var wire 1 e" inst9|labelfile~2_q $end
$var wire 1 f" inst9|labelfile~10_q $end
$var wire 1 g" inst9|labelfile~21_combout $end
$var wire 1 h" inst2|Add0~4_combout $end
$var wire 1 i" inst2|outputPC[2]~5_combout $end
$var wire 1 j" startAddress[2]~input_o $end
$var wire 1 k" inst|rom~31_combout $end
$var wire 1 l" inst|rom~30_combout $end
$var wire 1 m" inst|rom~32_combout $end
$var wire 1 n" inst4|Equal0~0_combout $end
$var wire 1 o" inst4|Decoder0~1_combout $end
$var wire 1 p" inst4|labelValue~7_combout $end
$var wire 1 q" hjkkasdf|Mux9~0_combout $end
$var wire 1 r" bm2|$00000|auto_generated|result_node[0]~0_combout $end
$var wire 1 s" hjkkasdf|Mux9~1_combout $end
$var wire 1 t" bm3|$00000|auto_generated|result_node[0]~7_combout $end
$var wire 1 u" inst9|labelfile~0_q $end
$var wire 1 v" inst9|labelfile~8_q $end
$var wire 1 w" inst9|labelfile~23_combout $end
$var wire 1 x" inst2|Add0~0_combout $end
$var wire 1 y" inst2|outputPC[0]~7_combout $end
$var wire 1 z" startAddress[0]~input_o $end
$var wire 1 {" inst2|Add0~1 $end
$var wire 1 |" inst2|Add0~2_combout $end
$var wire 1 }" inst4|labelValue~6_combout $end
$var wire 1 ~" bm3|$00000|auto_generated|result_node[1]~6_combout $end
$var wire 1 !# inst9|labelfile~1_q $end
$var wire 1 "# inst9|labelfile~9_q $end
$var wire 1 ## inst9|labelfile~22_combout $end
$var wire 1 $# inst2|outputPC[1]~6_combout $end
$var wire 1 %# startAddress[1]~input_o $end
$var wire 1 &# inst|rom~34_combout $end
$var wire 1 '# inst|rom~38_combout $end
$var wire 1 (# inst|rom~35_combout $end
$var wire 1 )# inst|rom~36_combout $end
$var wire 1 *# inst|rom~37_combout $end
$var wire 1 +# inst|rom~39_combout $end
$var wire 1 ,# inst|rom~86_combout $end
$var wire 1 -# inst|rom~60_combout $end
$var wire 1 .# inst|rom~61_combout $end
$var wire 1 /# inst|rom~62_combout $end
$var wire 1 0# inst|rom~63_combout $end
$var wire 1 1# inst|rom~65_combout $end
$var wire 1 2# inst|rom~64_combout $end
$var wire 1 3# inst|rom~66_combout $end
$var wire 1 4# inst|rom~67_combout $end
$var wire 1 5# inst|rom~68_combout $end
$var wire 1 6# inst|rom~88_combout $end
$var wire 1 7# inst|rom~56_combout $end
$var wire 1 8# inst|rom~55_combout $end
$var wire 1 9# inst|rom~90_combout $end
$var wire 1 :# inst|rom~58_combout $end
$var wire 1 ;# inst|rom~57_combout $end
$var wire 1 <# inst|rom~59_combout $end
$var wire 1 =# inst4|value~2_combout $end
$var wire 1 ># inst|rom~73_combout $end
$var wire 1 ?# inst|rom~72_combout $end
$var wire 1 @# inst|rom~74_combout $end
$var wire 1 A# inst|rom~71_combout $end
$var wire 1 B# inst|rom~70_combout $end
$var wire 1 C# inst|rom~69_combout $end
$var wire 1 D# inst|rom~91_combout $end
$var wire 1 E# inst|rom~92_combout $end
$var wire 1 F# inst|rom~75_combout $end
$var wire 1 G# inst|rom~77_combout $end
$var wire 1 H# inst|rom~76_combout $end
$var wire 1 I# inst|rom~78_combout $end
$var wire 1 J# inst|rom~83_combout $end
$var wire 1 K# inst|rom~79_combout $end
$var wire 1 L# inst|rom~80_combout $end
$var wire 1 M# inst|rom~81_combout $end
$var wire 1 N# inst|rom~82_combout $end
$var wire 1 O# inst|rom~84_combout $end
$var wire 1 P# inst|rom~89_combout $end
$var wire 1 Q# inst4|value~1_combout $end
$var wire 1 R# inst4|value~3_combout $end
$var wire 1 S# inst4|WideOr6~0_combout $end
$var wire 1 T# inst4|Selector1~0_combout $end
$var wire 1 U# inst4|labelValue~3_combout $end
$var wire 1 V# bm3|$00000|auto_generated|result_node[4]~3_combout $end
$var wire 1 W# inst9|labelfile~4_q $end
$var wire 1 X# inst9|labelfile~12feeder_combout $end
$var wire 1 Y# inst9|labelfile~12_q $end
$var wire 1 Z# inst9|labelfile~19_combout $end
$var wire 1 [# inst2|Add0~7 $end
$var wire 1 \# inst2|Add0~8_combout $end
$var wire 1 ]# inst2|outputPC[4]~3_combout $end
$var wire 1 ^# startAddress[4]~input_o $end
$var wire 1 _# inst2|Add0~9 $end
$var wire 1 `# inst2|Add0~10_combout $end
$var wire 1 a# inst4|labelValue~2_combout $end
$var wire 1 b# bm3|$00000|auto_generated|result_node[5]~2_combout $end
$var wire 1 c# inst9|labelfile~13_q $end
$var wire 1 d# inst9|labelfile~5_q $end
$var wire 1 e# inst9|labelfile~18_combout $end
$var wire 1 f# inst2|outputPC[5]~2_combout $end
$var wire 1 g# startAddress[5]~input_o $end
$var wire 1 h# inst2|Add0~11 $end
$var wire 1 i# inst2|Add0~13 $end
$var wire 1 j# inst2|Add0~14_combout $end
$var wire 1 k# inst4|labelValue~0_combout $end
$var wire 1 l# bm3|$00000|auto_generated|result_node[7]~0_combout $end
$var wire 1 m# inst9|labelfile~7_q $end
$var wire 1 n# inst9|labelfile~15_q $end
$var wire 1 o# inst9|labelfile~16_combout $end
$var wire 1 p# inst2|outputPC[7]~0_combout $end
$var wire 1 q# startAddress[7]~input_o $end
$var wire 1 r# inst|addr_reg[7]~feeder_combout $end
$var wire 1 s# inst|rom~19_combout $end
$var wire 1 t# inst|rom~20_combout $end
$var wire 1 u# inst|rom~21_combout $end
$var wire 1 v# inst|rom~26_combout $end
$var wire 1 w# inst|rom~22_combout $end
$var wire 1 x# inst|rom~23_combout $end
$var wire 1 y# inst|rom~24_combout $end
$var wire 1 z# inst|rom~25_combout $end
$var wire 1 {# inst|rom~27_combout $end
$var wire 1 |# inst|rom~85_combout $end
$var wire 1 }# inst4|value~0_combout $end
$var wire 1 ~# inst4|Decoder0~3_combout $end
$var wire 1 !$ inst4|readmem~q $end
$var wire 1 "$ inst4|labelValue~1_combout $end
$var wire 1 #$ bm3|$00000|auto_generated|result_node[6]~1_combout $end
$var wire 1 $$ inst9|labelfile~14_q $end
$var wire 1 %$ inst9|labelfile~6_q $end
$var wire 1 &$ inst9|labelfile~17_combout $end
$var wire 1 '$ inst2|Add0~12_combout $end
$var wire 1 ($ inst2|outputPC[6]~1_combout $end
$var wire 1 )$ startAddress[6]~input_o $end
$var wire 1 *$ inst|addr_reg[6]~feeder_combout $end
$var wire 1 +$ inst|rom~46_combout $end
$var wire 1 ,$ inst|rom~47_combout $end
$var wire 1 -$ inst|rom~48_combout $end
$var wire 1 .$ inst|rom~49_combout $end
$var wire 1 /$ inst|rom~50_combout $end
$var wire 1 0$ inst|rom~51_combout $end
$var wire 1 1$ inst|rom~52_combout $end
$var wire 1 2$ inst|rom~53_combout $end
$var wire 1 3$ inst|rom~54_combout $end
$var wire 1 4$ inst|rom~87_combout $end
$var wire 1 5$ inst4|labelPassFlagOut~0_combout $end
$var wire 1 6$ inst4|labelPassFlagOut~q $end
$var wire 1 7$ gaadsf~combout $end
$var wire 1 8$ inst4|haltFlag~0_combout $end
$var wire 1 9$ inst4|haltFlag~q $end
$var wire 1 :$ clk~input_o $end
$var wire 1 ;$ inst27|5~combout $end
$var wire 1 <$ inst2|cycleCounter[0]~45_combout $end
$var wire 1 =$ inst2|cycleCounter[1]~15_combout $end
$var wire 1 >$ inst2|cycleCounter[1]~16 $end
$var wire 1 ?$ inst2|cycleCounter[2]~17_combout $end
$var wire 1 @$ inst2|cycleCounter[2]~18 $end
$var wire 1 A$ inst2|cycleCounter[3]~19_combout $end
$var wire 1 B$ inst2|cycleCounter[3]~20 $end
$var wire 1 C$ inst2|cycleCounter[4]~21_combout $end
$var wire 1 D$ inst2|cycleCounter[4]~22 $end
$var wire 1 E$ inst2|cycleCounter[5]~23_combout $end
$var wire 1 F$ inst2|cycleCounter[5]~24 $end
$var wire 1 G$ inst2|cycleCounter[6]~25_combout $end
$var wire 1 H$ inst2|cycleCounter[6]~26 $end
$var wire 1 I$ inst2|cycleCounter[7]~27_combout $end
$var wire 1 J$ inst2|cycleCounter[7]~28 $end
$var wire 1 K$ inst2|cycleCounter[8]~29_combout $end
$var wire 1 L$ inst2|cycleCounter[8]~30 $end
$var wire 1 M$ inst2|cycleCounter[9]~31_combout $end
$var wire 1 N$ inst2|cycleCounter[9]~32 $end
$var wire 1 O$ inst2|cycleCounter[10]~33_combout $end
$var wire 1 P$ inst2|cycleCounter[10]~34 $end
$var wire 1 Q$ inst2|cycleCounter[11]~35_combout $end
$var wire 1 R$ inst2|cycleCounter[11]~36 $end
$var wire 1 S$ inst2|cycleCounter[12]~37_combout $end
$var wire 1 T$ inst2|cycleCounter[12]~38 $end
$var wire 1 U$ inst2|cycleCounter[13]~39_combout $end
$var wire 1 V$ inst2|cycleCounter[13]~40 $end
$var wire 1 W$ inst2|cycleCounter[14]~41_combout $end
$var wire 1 X$ inst2|cycleCounter[14]~42 $end
$var wire 1 Y$ inst2|cycleCounter[15]~43_combout $end
$var wire 1 Z$ hjkkasdf|result [7] $end
$var wire 1 [$ hjkkasdf|result [6] $end
$var wire 1 \$ hjkkasdf|result [5] $end
$var wire 1 ]$ hjkkasdf|result [4] $end
$var wire 1 ^$ hjkkasdf|result [3] $end
$var wire 1 _$ hjkkasdf|result [2] $end
$var wire 1 `$ hjkkasdf|result [1] $end
$var wire 1 a$ hjkkasdf|result [0] $end
$var wire 1 b$ inst4|value [7] $end
$var wire 1 c$ inst4|value [6] $end
$var wire 1 d$ inst4|value [5] $end
$var wire 1 e$ inst4|value [4] $end
$var wire 1 f$ inst4|value [3] $end
$var wire 1 g$ inst4|value [2] $end
$var wire 1 h$ inst4|value [1] $end
$var wire 1 i$ inst4|value [0] $end
$var wire 1 j$ inst2|outputPC [7] $end
$var wire 1 k$ inst2|outputPC [6] $end
$var wire 1 l$ inst2|outputPC [5] $end
$var wire 1 m$ inst2|outputPC [4] $end
$var wire 1 n$ inst2|outputPC [3] $end
$var wire 1 o$ inst2|outputPC [2] $end
$var wire 1 p$ inst2|outputPC [1] $end
$var wire 1 q$ inst2|outputPC [0] $end
$var wire 1 r$ inst4|rd [3] $end
$var wire 1 s$ inst4|rd [2] $end
$var wire 1 t$ inst4|rd [1] $end
$var wire 1 u$ inst4|rd [0] $end
$var wire 1 v$ inst2|cycleCounter [15] $end
$var wire 1 w$ inst2|cycleCounter [14] $end
$var wire 1 x$ inst2|cycleCounter [13] $end
$var wire 1 y$ inst2|cycleCounter [12] $end
$var wire 1 z$ inst2|cycleCounter [11] $end
$var wire 1 {$ inst2|cycleCounter [10] $end
$var wire 1 |$ inst2|cycleCounter [9] $end
$var wire 1 }$ inst2|cycleCounter [8] $end
$var wire 1 ~$ inst2|cycleCounter [7] $end
$var wire 1 !% inst2|cycleCounter [6] $end
$var wire 1 "% inst2|cycleCounter [5] $end
$var wire 1 #% inst2|cycleCounter [4] $end
$var wire 1 $% inst2|cycleCounter [3] $end
$var wire 1 %% inst2|cycleCounter [2] $end
$var wire 1 &% inst2|cycleCounter [1] $end
$var wire 1 '% inst2|cycleCounter [0] $end
$var wire 1 (% inst|addr_reg [7] $end
$var wire 1 )% inst|addr_reg [6] $end
$var wire 1 *% inst|addr_reg [5] $end
$var wire 1 +% inst|addr_reg [4] $end
$var wire 1 ,% inst|addr_reg [3] $end
$var wire 1 -% inst|addr_reg [2] $end
$var wire 1 .% inst|addr_reg [1] $end
$var wire 1 /% inst|addr_reg [0] $end
$var wire 1 0% inst9|branchAddress [7] $end
$var wire 1 1% inst9|branchAddress [6] $end
$var wire 1 2% inst9|branchAddress [5] $end
$var wire 1 3% inst9|branchAddress [4] $end
$var wire 1 4% inst9|branchAddress [3] $end
$var wire 1 5% inst9|branchAddress [2] $end
$var wire 1 6% inst9|branchAddress [1] $end
$var wire 1 7% inst9|branchAddress [0] $end
$var wire 1 8% inst4|opcode [3] $end
$var wire 1 9% inst4|opcode [2] $end
$var wire 1 :% inst4|opcode [1] $end
$var wire 1 ;% inst4|opcode [0] $end
$var wire 1 <% inst4|labelValue [7] $end
$var wire 1 =% inst4|labelValue [6] $end
$var wire 1 >% inst4|labelValue [5] $end
$var wire 1 ?% inst4|labelValue [4] $end
$var wire 1 @% inst4|labelValue [3] $end
$var wire 1 A% inst4|labelValue [2] $end
$var wire 1 B% inst4|labelValue [1] $end
$var wire 1 C% inst4|labelValue [0] $end
$upscope $end
$upscope $end
$enddefinitions $end
#0
$dumpvars
0!
1"
0#
b0 $
0%
0-
0,
0+
0*
0)
0(
0'
0&
05
04
03
02
01
00
0/
0.
0=
0<
0;
0:
09
08
07
06
0E
0D
0C
0B
0A
0@
0?
0>
0F
0N
0M
0L
0K
0J
0I
0H
0G
0^
0]
0\
0[
0Z
0Y
0X
0W
0V
0U
0T
0S
0R
0Q
0P
0O
0f
0e
0d
0c
0b
0a
0`
0_
0g
0o
0n
0m
0l
1k
0j
1i
1h
0s
0r
0q
0p
1t
0u
0}
0|
0{
0z
0y
0x
0w
0v
0'!
0&!
0%!
0$!
0#!
0"!
0!!
0~
x(!
0)!
1*!
x+!
1,!
1-!
1.!
0/!
00!
01!
12!
03!
04!
05!
06!
07!
08!
09!
0:!
0;!
0<!
0=!
0>!
0?!
0@!
0A!
0B!
0C!
0D!
0E!
0F!
0G!
0H!
0I!
0J!
0K!
0L!
0M!
0N!
0O!
0P!
0Q!
0R!
0S!
0T!
0U!
0V!
0W!
0X!
0Y!
0Z!
0[!
0\!
0]!
0^!
0_!
0`!
0a!
0b!
0c!
0d!
0e!
0f!
0g!
0h!
0i!
0j!
0k!
0l!
0m!
0n!
0o!
0p!
0q!
0r!
1s!
1t!
0u!
1v!
0w!
0x!
0y!
0z!
0{!
0|!
0}!
0~!
0!"
0""
0#"
0$"
0%"
0&"
0'"
0("
0)"
0*"
0+"
0,"
0-"
0."
0/"
00"
01"
02"
13"
04"
05"
16"
07"
08"
09"
0:"
0;"
0<"
0="
0>"
0?"
0@"
0A"
0B"
0C"
0D"
0E"
0F"
0G"
0H"
1I"
0J"
0K"
0L"
0M"
0N"
0O"
0P"
0Q"
0R"
1S"
0T"
0U"
1V"
1W"
0X"
0Y"
0Z"
0["
1\"
0]"
0^"
0_"
0`"
0a"
0b"
0c"
0d"
0e"
0f"
0g"
0h"
0i"
0j"
0k"
0l"
0m"
0n"
0o"
0p"
0q"
0r"
0s"
0t"
0u"
0v"
0w"
1x"
1y"
0z"
0{"
0|"
0}"
0~"
0!#
0"#
0##
0$#
0%#
0&#
0'#
0(#
0)#
1*#
1+#
1,#
0-#
0.#
0/#
00#
01#
02#
03#
04#
05#
06#
07#
08#
09#
0:#
0;#
0<#
1=#
0>#
0?#
0@#
0A#
0B#
0C#
0D#
0E#
0F#
0G#
0H#
0I#
0J#
0K#
0L#
0M#
0N#
0O#
0P#
1Q#
0R#
0S#
0T#
0U#
0V#
0W#
0X#
0Y#
0Z#
1[#
0\#
0]#
0^#
0_#
0`#
0a#
0b#
0c#
0d#
0e#
0f#
0g#
1h#
0i#
0j#
0k#
0l#
0m#
0n#
0o#
0p#
0q#
0r#
0s#
0t#
0u#
0v#
0w#
0x#
0y#
1z#
1{#
1|#
0}#
0~#
0!$
0"$
0#$
0$$
0%$
0&$
0'$
0($
0)$
0*$
0+$
0,$
0-$
0.$
0/$
00$
11$
02$
13$
14$
15$
06$
17$
08$
09$
0:$
0;$
1<$
0=$
0>$
0?$
1@$
0A$
0B$
0C$
1D$
0E$
0F$
0G$
1H$
0I$
0J$
0K$
1L$
0M$
0N$
0O$
1P$
0Q$
0R$
0S$
1T$
0U$
0V$
0W$
1X$
0Y$
0a$
z`$
z_$
z^$
z]$
z\$
z[$
0Z$
0i$
zh$
zg$
zf$
ze$
zd$
zc$
zb$
0q$
0p$
0o$
0n$
0m$
0l$
0k$
0j$
0u$
zt$
zs$
zr$
0'%
0&%
0%%
0$%
0#%
0"%
0!%
0~$
0}$
0|$
0{$
0z$
0y$
0x$
0w$
0v$
0/%
0.%
0-%
0,%
0+%
0*%
0)%
0(%
07%
06%
05%
04%
03%
02%
01%
00%
0;%
0:%
09%
08%
0C%
0B%
0A%
0@%
0?%
0>%
0=%
0<%
$end
#20000
1!
1:$
0(!
1;$
12"
1/!
1F
16$
1'%
1q$
1Z!
1j!
1{"
0x"
1N
1^
1=$
0<$
1|"
0y"
1$#
#40000
0"
0!
03"
0:$
1(!
0;$
02"
0/!
0F
#60000
1!
1:$
0(!
1;$
12"
1/!
1F
1/%
1&%
0'%
1p$
0q$
0Z!
1Y!
0j!
1i!
10$
1/$
1y#
1w#
1O#
1H#
1G#
1C#
1A#
1?#
1>#
18#
14#
12#
10#
1)#
1(#
0I"
0|"
0{"
1x"
0N
1M
0^
1]
1<$
01$
0z#
1:#
0*#
1h"
1I"
1|"
1P#
0$#
1y"
1z!
03$
0{#
0+#
0h"
1o
1i"
1$#
04$
0|#
0,#
0i"
0t!
0s!
0v!
0=#
0i
0h
0k
#80000
0!
0:$
1(!
0;$
02"
0/!
0F
#100000
1!
1:$
0(!
1;$
12"
1/!
1F
1.%
0/%
1'%
1q$
1Z!
1j!
12$
00$
1.$
1,$
1+$
0y#
0w#
1t#
1M#
1J#
0H#
1D#
0?#
0>#
02#
00#
1-#
0)#
0(#
1'#
1_"
0O#
0C#
0A#
08#
1>$
1{"
0x"
1N
1^
1<#
0=$
0<$
1w!
11$
1z#
1N#
1E#
1*#
0D#
0:#
0I"
0|"
1=#
1l
0P#
1?$
0y"
0z!
13$
1{#
1O#
1+#
0E#
1h"
0Q#
0o
1F#
0<#
0$#
0w!
1y!
1Q#
0=#
0l
1n
14$
1|#
1P#
1,#
0F#
1i"
0y!
1t!
1z!
1s!
1v!
1=#
0n
1i
1o
1h
1k
#120000
0!
0:$
1(!
0;$
02"
0/!
0F
#140000
1!
1:$
0(!
1;$
12"
1/!
1F
1/%
1%%
0&%
0'%
0p$
0q$
1o$
1X!
0Z!
0Y!
0j!
0i!
1h!
10$
0/$
0,$
0+$
1w#
1v#
0O#
0N#
1H#
0G#
1C#
1A#
18#
12#
11#
10#
1(#
0'#
0@$
0>$
1I"
1|"
0{"
1x"
1J"
0h"
1L
0N
0M
0^
0]
1\
0?$
1<$
01$
1O#
1D#
1:#
13#
1@$
0J"
1h"
0|"
1K"
0P#
1A$
1?$
1$#
1y"
0i"
0z!
03$
1E#
15#
0K"
0o
1P#
1<#
0A$
1i"
0$#
1L"
1w!
1z!
1l
1o
04$
1F#
16#
0L"
1x!
1y!
0v!
1m
1n
0k
#160000
0!
0:$
1(!
0;$
02"
0/!
0F
